%YAML 1.1
%TAG !u! tag:unity3d.com,2011:
--- !u!29 &1
OcclusionCullingSettings:
  m_ObjectHideFlags: 0
  serializedVersion: 2
  m_OcclusionBakeSettings:
    smallestOccluder: 5
    smallestHole: 0.25
    backfaceThreshold: 100
  m_SceneGUID: 00000000000000000000000000000000
  m_OcclusionCullingData: {fileID: 0}
--- !u!104 &2
RenderSettings:
  m_ObjectHideFlags: 0
  serializedVersion: 8
  m_Fog: 0
  m_FogColor: {r: 0.5, g: 0.5, b: 0.5, a: 1}
  m_FogMode: 3
  m_FogDensity: 0.01
  m_LinearFogStart: 0
  m_LinearFogEnd: 300
  m_AmbientSkyColor: {r: 0.212, g: 0.227, b: 0.259, a: 1}
  m_AmbientEquatorColor: {r: 0.114, g: 0.125, b: 0.133, a: 1}
  m_AmbientGroundColor: {r: 0.047, g: 0.043, b: 0.035, a: 1}
  m_AmbientIntensity: 1
  m_AmbientMode: 0
  m_SubtractiveShadowColor: {r: 0.42, g: 0.478, b: 0.627, a: 1}
  m_SkyboxMaterial: {fileID: 10304, guid: 0000000000000000f000000000000000, type: 0}
  m_HaloStrength: 0.5
  m_FlareStrength: 1
  m_FlareFadeSpeed: 3
  m_HaloTexture: {fileID: 0}
  m_SpotCookie: {fileID: 10001, guid: 0000000000000000e000000000000000, type: 0}
  m_DefaultReflectionMode: 0
  m_DefaultReflectionResolution: 128
  m_ReflectionBounces: 1
  m_ReflectionIntensity: 1
  m_CustomReflection: {fileID: 0}
  m_Sun: {fileID: 0}
  m_IndirectSpecularColor: {r: 0, g: 0, b: 0, a: 1}
--- !u!157 &3
LightmapSettings:
  m_ObjectHideFlags: 0
  serializedVersion: 11
  m_GIWorkflowMode: 0
  m_GISettings:
    serializedVersion: 2
    m_BounceScale: 1
    m_IndirectOutputScale: 1
    m_AlbedoBoost: 1
    m_TemporalCoherenceThreshold: 1
    m_EnvironmentLightingMode: 0
    m_EnableBakedLightmaps: 1
    m_EnableRealtimeLightmaps: 1
  m_LightmapEditorSettings:
    serializedVersion: 9
    m_Resolution: 2
    m_BakeResolution: 40
    m_TextureWidth: 1024
    m_TextureHeight: 1024
    m_AO: 0
    m_AOMaxDistance: 1
    m_CompAOExponent: 1
    m_CompAOExponentDirect: 0
    m_Padding: 2
    m_LightmapParameters: {fileID: 0}
    m_LightmapsBakeMode: 1
    m_TextureCompression: 1
    m_FinalGather: 0
    m_FinalGatherFiltering: 1
    m_FinalGatherRayCount: 256
    m_ReflectionCompression: 2
    m_MixedBakeMode: 1
    m_BakeBackend: 0
    m_PVRSampling: 1
    m_PVRDirectSampleCount: 32
    m_PVRSampleCount: 500
    m_PVRBounces: 2
    m_PVRFilterTypeDirect: 0
    m_PVRFilterTypeIndirect: 0
    m_PVRFilterTypeAO: 0
    m_PVRFilteringMode: 0
    m_PVRCulling: 1
    m_PVRFilteringGaussRadiusDirect: 1
    m_PVRFilteringGaussRadiusIndirect: 5
    m_PVRFilteringGaussRadiusAO: 2
    m_PVRFilteringAtrousPositionSigmaDirect: 0.5
    m_PVRFilteringAtrousPositionSigmaIndirect: 2
    m_PVRFilteringAtrousPositionSigmaAO: 1
  m_LightingDataAsset: {fileID: 0}
  m_UseShadowmask: 0
--- !u!196 &4
NavMeshSettings:
  serializedVersion: 2
  m_ObjectHideFlags: 0
  m_BuildSettings:
    serializedVersion: 2
    agentTypeID: 0
    agentRadius: 0.5
    agentHeight: 2
    agentSlope: 45
    agentClimb: 0.4
    ledgeDropHeight: 0
    maxJumpAcrossDistance: 0
    minRegionArea: 2
    manualCellSize: 0
    cellSize: 0.16666667
    manualTileSize: 0
    tileSize: 256
    accuratePlacement: 0
  m_NavMeshData: {fileID: 0}
--- !u!1 &859125
GameObject:
  m_ObjectHideFlags: 0
  m_PrefabParentObject: {fileID: 0}
  m_PrefabInternal: {fileID: 0}
  serializedVersion: 5
  m_Component:
  - component: {fileID: 859127}
  - component: {fileID: 859126}
  m_Layer: 0
  m_Name: Directional Light
  m_TagString: Untagged
  m_Icon: {fileID: 0}
  m_NavMeshLayer: 0
  m_StaticEditorFlags: 0
  m_IsActive: 1
--- !u!108 &859126
Light:
  m_ObjectHideFlags: 0
  m_PrefabParentObject: {fileID: 0}
  m_PrefabInternal: {fileID: 0}
  m_GameObject: {fileID: 859125}
  m_Enabled: 1
  serializedVersion: 8
  m_Type: 1
  m_Color: {r: 1, g: 0.95686275, b: 0.8392157, a: 1}
  m_Intensity: 1
  m_Range: 10
  m_SpotAngle: 30
  m_CookieSize: 10
  m_Shadows:
    m_Type: 2
    m_Resolution: -1
    m_CustomResolution: -1
    m_Strength: 1
    m_Bias: 0.05
    m_NormalBias: 0.4
    m_NearPlane: 0.2
  m_Cookie: {fileID: 0}
  m_DrawHalo: 0
  m_Flare: {fileID: 0}
  m_RenderMode: 0
  m_CullingMask:
    serializedVersion: 2
    m_Bits: 4294967295
  m_Lightmapping: 4
  m_AreaSize: {x: 1, y: 1}
  m_BounceIntensity: 1
  m_ColorTemperature: 6570
  m_UseColorTemperature: 0
  m_ShadowRadius: 0
  m_ShadowAngle: 0
--- !u!4 &859127
Transform:
  m_ObjectHideFlags: 0
  m_PrefabParentObject: {fileID: 0}
  m_PrefabInternal: {fileID: 0}
  m_GameObject: {fileID: 859125}
  m_LocalRotation: {x: 0.40821788, y: -0.23456968, z: 0.10938163, w: 0.8754261}
  m_LocalPosition: {x: 0, y: 3, z: 0}
  m_LocalScale: {x: 1, y: 1, z: 1}
  m_Children: []
  m_Father: {fileID: 0}
  m_RootOrder: 1
  m_LocalEulerAnglesHint: {x: 50, y: -30, z: 0}
--- !u!1001 &147828599
Prefab:
  m_ObjectHideFlags: 0
  serializedVersion: 2
  m_Modification:
    m_TransformParent: {fileID: 962893137}
    m_Modifications:
    - target: {fileID: 4315264581896420, guid: cd59395cbb4d4454e86686feb63303de, type: 2}
      propertyPath: m_LocalPosition.x
      value: 1.3427348
      objectReference: {fileID: 0}
    - target: {fileID: 4315264581896420, guid: cd59395cbb4d4454e86686feb63303de, type: 2}
      propertyPath: m_LocalPosition.y
      value: 1.6418376
      objectReference: {fileID: 0}
    - target: {fileID: 4315264581896420, guid: cd59395cbb4d4454e86686feb63303de, type: 2}
      propertyPath: m_LocalPosition.z
      value: 1.4950091
      objectReference: {fileID: 0}
    - target: {fileID: 4315264581896420, guid: cd59395cbb4d4454e86686feb63303de, type: 2}
      propertyPath: m_LocalRotation.x
      value: -0
      objectReference: {fileID: 0}
    - target: {fileID: 4315264581896420, guid: cd59395cbb4d4454e86686feb63303de, type: 2}
      propertyPath: m_LocalRotation.y
      value: -0
      objectReference: {fileID: 0}
    - target: {fileID: 4315264581896420, guid: cd59395cbb4d4454e86686feb63303de, type: 2}
      propertyPath: m_LocalRotation.z
      value: -0
      objectReference: {fileID: 0}
    - target: {fileID: 4315264581896420, guid: cd59395cbb4d4454e86686feb63303de, type: 2}
      propertyPath: m_LocalRotation.w
      value: 1
      objectReference: {fileID: 0}
    - target: {fileID: 4315264581896420, guid: cd59395cbb4d4454e86686feb63303de, type: 2}
      propertyPath: m_RootOrder
      value: 10
      objectReference: {fileID: 0}
    m_RemovedComponents: []
  m_ParentPrefab: {fileID: 100100000, guid: cd59395cbb4d4454e86686feb63303de, type: 2}
  m_RootGameObject: {fileID: 299117817}
  m_IsPrefabParent: 0
--- !u!4 &147828600
Transform:
  m_ObjectHideFlags: 0
  m_PrefabParentObject: {fileID: 4315264581896420, guid: cd59395cbb4d4454e86686feb63303de,
    type: 2}
  m_PrefabInternal: {fileID: 147828599}
  m_GameObject: {fileID: 299117817}
  m_LocalRotation: {x: -0, y: -0, z: -0, w: 1}
  m_LocalPosition: {x: 1.3427348, y: 1.6418376, z: 1.4950091}
  m_LocalScale: {x: 1, y: 1, z: 1}
  m_Children: []
  m_Father: {fileID: 962893137}
  m_RootOrder: 10
  m_LocalEulerAnglesHint: {x: 0, y: 0, z: 0}
--- !u!1001 &196171987
Prefab:
  m_ObjectHideFlags: 0
  serializedVersion: 2
  m_Modification:
    m_TransformParent: {fileID: 962893137}
    m_Modifications:
    - target: {fileID: 4487283726770914, guid: 2088e620460408a4cb440efd7a6ee756, type: 2}
      propertyPath: m_LocalPosition.x
      value: 0.046002388
      objectReference: {fileID: 0}
    - target: {fileID: 4487283726770914, guid: 2088e620460408a4cb440efd7a6ee756, type: 2}
      propertyPath: m_LocalPosition.y
      value: 1.5186121
      objectReference: {fileID: 0}
    - target: {fileID: 4487283726770914, guid: 2088e620460408a4cb440efd7a6ee756, type: 2}
      propertyPath: m_LocalPosition.z
      value: -1.1343226
      objectReference: {fileID: 0}
    - target: {fileID: 4487283726770914, guid: 2088e620460408a4cb440efd7a6ee756, type: 2}
      propertyPath: m_LocalRotation.x
      value: -0
      objectReference: {fileID: 0}
    - target: {fileID: 4487283726770914, guid: 2088e620460408a4cb440efd7a6ee756, type: 2}
      propertyPath: m_LocalRotation.y
      value: -0
      objectReference: {fileID: 0}
    - target: {fileID: 4487283726770914, guid: 2088e620460408a4cb440efd7a6ee756, type: 2}
      propertyPath: m_LocalRotation.z
      value: -0
      objectReference: {fileID: 0}
    - target: {fileID: 4487283726770914, guid: 2088e620460408a4cb440efd7a6ee756, type: 2}
      propertyPath: m_LocalRotation.w
      value: 1
      objectReference: {fileID: 0}
    - target: {fileID: 4487283726770914, guid: 2088e620460408a4cb440efd7a6ee756, type: 2}
      propertyPath: m_RootOrder
      value: 15
      objectReference: {fileID: 0}
    m_RemovedComponents: []
  m_ParentPrefab: {fileID: 100100000, guid: 2088e620460408a4cb440efd7a6ee756, type: 2}
  m_RootGameObject: {fileID: 1804865517}
  m_IsPrefabParent: 0
--- !u!4 &196171988
Transform:
  m_ObjectHideFlags: 0
  m_PrefabParentObject: {fileID: 4487283726770914, guid: 2088e620460408a4cb440efd7a6ee756,
    type: 2}
  m_PrefabInternal: {fileID: 196171987}
  m_GameObject: {fileID: 1804865517}
  m_LocalRotation: {x: -0, y: -0, z: -0, w: 1}
  m_LocalPosition: {x: 0.046002388, y: 1.5186121, z: -1.1343226}
  m_LocalScale: {x: 1, y: 1, z: 1}
  m_Children: []
  m_Father: {fileID: 962893137}
  m_RootOrder: 15
  m_LocalEulerAnglesHint: {x: 0, y: 0, z: 0}
--- !u!1001 &263947050
Prefab:
  m_ObjectHideFlags: 0
  serializedVersion: 2
  m_Modification:
    m_TransformParent: {fileID: 962893137}
    m_Modifications:
    - target: {fileID: 4326959801732698, guid: 32cef39e2a3e7b4438c4f1b6e66c715b, type: 2}
      propertyPath: m_LocalPosition.x
      value: -0.07453632
      objectReference: {fileID: 0}
    - target: {fileID: 4326959801732698, guid: 32cef39e2a3e7b4438c4f1b6e66c715b, type: 2}
      propertyPath: m_LocalPosition.y
      value: 1.533117
      objectReference: {fileID: 0}
    - target: {fileID: 4326959801732698, guid: 32cef39e2a3e7b4438c4f1b6e66c715b, type: 2}
      propertyPath: m_LocalPosition.z
      value: 0.017881632
      objectReference: {fileID: 0}
    - target: {fileID: 4326959801732698, guid: 32cef39e2a3e7b4438c4f1b6e66c715b, type: 2}
      propertyPath: m_LocalRotation.x
      value: -0
      objectReference: {fileID: 0}
    - target: {fileID: 4326959801732698, guid: 32cef39e2a3e7b4438c4f1b6e66c715b, type: 2}
      propertyPath: m_LocalRotation.y
      value: -0
      objectReference: {fileID: 0}
    - target: {fileID: 4326959801732698, guid: 32cef39e2a3e7b4438c4f1b6e66c715b, type: 2}
      propertyPath: m_LocalRotation.z
      value: -0
      objectReference: {fileID: 0}
    - target: {fileID: 4326959801732698, guid: 32cef39e2a3e7b4438c4f1b6e66c715b, type: 2}
      propertyPath: m_LocalRotation.w
      value: 1
      objectReference: {fileID: 0}
    - target: {fileID: 4326959801732698, guid: 32cef39e2a3e7b4438c4f1b6e66c715b, type: 2}
      propertyPath: m_RootOrder
      value: 13
      objectReference: {fileID: 0}
    m_RemovedComponents: []
  m_ParentPrefab: {fileID: 100100000, guid: 32cef39e2a3e7b4438c4f1b6e66c715b, type: 2}
  m_RootGameObject: {fileID: 1161708202}
  m_IsPrefabParent: 0
--- !u!4 &263947051
Transform:
  m_ObjectHideFlags: 0
  m_PrefabParentObject: {fileID: 4326959801732698, guid: 32cef39e2a3e7b4438c4f1b6e66c715b,
    type: 2}
  m_PrefabInternal: {fileID: 263947050}
  m_GameObject: {fileID: 1161708202}
  m_LocalRotation: {x: -0, y: -0, z: -0, w: 1}
  m_LocalPosition: {x: -0.07453632, y: 1.533117, z: 0.017881632}
  m_LocalScale: {x: 1, y: 1, z: 1}
  m_Children: []
  m_Father: {fileID: 962893137}
  m_RootOrder: 13
  m_LocalEulerAnglesHint: {x: 0, y: 0, z: 0}
--- !u!1 &299117817
GameObject:
  m_ObjectHideFlags: 0
  m_PrefabParentObject: {fileID: 1208358379006102, guid: cd59395cbb4d4454e86686feb63303de,
    type: 2}
  m_PrefabInternal: {fileID: 147828599}
  serializedVersion: 5
  m_Component:
  - component: {fileID: 147828600}
  - component: {fileID: 299117819}
  - component: {fileID: 299117818}
  m_Layer: 0
  m_Name: Part_10
  m_TagString: Untagged
  m_Icon: {fileID: 0}
  m_NavMeshLayer: 0
  m_StaticEditorFlags: 0
  m_IsActive: 1
--- !u!23 &299117818
MeshRenderer:
  m_ObjectHideFlags: 0
  m_PrefabParentObject: {fileID: 23836418457376456, guid: cd59395cbb4d4454e86686feb63303de,
    type: 2}
  m_PrefabInternal: {fileID: 147828599}
  m_GameObject: {fileID: 299117817}
  m_Enabled: 1
  m_CastShadows: 1
  m_ReceiveShadows: 1
  m_MotionVectors: 1
  m_LightProbeUsage: 1
  m_ReflectionProbeUsage: 1
  m_Materials:
  - {fileID: 2100000, guid: c0e2b2c96376d3946abe974753956658, type: 2}
  m_StaticBatchInfo:
    firstSubMesh: 0
    subMeshCount: 0
  m_StaticBatchRoot: {fileID: 0}
  m_ProbeAnchor: {fileID: 0}
  m_LightProbeVolumeOverride: {fileID: 0}
  m_ScaleInLightmap: 1
  m_PreserveUVs: 0
  m_IgnoreNormalsForChartDetection: 0
  m_ImportantGI: 0
  m_SelectedEditorRenderState: 3
  m_MinimumChartSize: 4
  m_AutoUVMaxDistance: 0.5
  m_AutoUVMaxAngle: 89
  m_LightmapParameters: {fileID: 0}
  m_SortingLayerID: 0
  m_SortingLayer: 0
  m_SortingOrder: 0
--- !u!33 &299117819
MeshFilter:
  m_ObjectHideFlags: 0
  m_PrefabParentObject: {fileID: 33754800282167424, guid: cd59395cbb4d4454e86686feb63303de,
    type: 2}
  m_PrefabInternal: {fileID: 147828599}
  m_GameObject: {fileID: 299117817}
  m_Mesh: {fileID: 4300020, guid: eb1625d1c61c79e4da85a39a1f877bc6, type: 3}
--- !u!1 &351681866
GameObject:
  m_ObjectHideFlags: 0
  m_PrefabParentObject: {fileID: 1437263636933162, guid: 8584316ecc4fc3c49a3ba8130275e439,
    type: 2}
  m_PrefabInternal: {fileID: 1327421904}
  serializedVersion: 5
  m_Component:
  - component: {fileID: 1327421905}
  - component: {fileID: 351681868}
  - component: {fileID: 351681867}
  m_Layer: 0
  m_Name: Part_02
  m_TagString: Untagged
  m_Icon: {fileID: 0}
  m_NavMeshLayer: 0
  m_StaticEditorFlags: 0
  m_IsActive: 1
--- !u!23 &351681867
MeshRenderer:
  m_ObjectHideFlags: 0
  m_PrefabParentObject: {fileID: 23373748890833944, guid: 8584316ecc4fc3c49a3ba8130275e439,
    type: 2}
  m_PrefabInternal: {fileID: 1327421904}
  m_GameObject: {fileID: 351681866}
  m_Enabled: 1
  m_CastShadows: 1
  m_ReceiveShadows: 1
  m_MotionVectors: 1
  m_LightProbeUsage: 1
  m_ReflectionProbeUsage: 1
  m_Materials:
  - {fileID: 2100000, guid: c0e2b2c96376d3946abe974753956658, type: 2}
  m_StaticBatchInfo:
    firstSubMesh: 0
    subMeshCount: 0
  m_StaticBatchRoot: {fileID: 0}
  m_ProbeAnchor: {fileID: 0}
  m_LightProbeVolumeOverride: {fileID: 0}
  m_ScaleInLightmap: 1
  m_PreserveUVs: 0
  m_IgnoreNormalsForChartDetection: 0
  m_ImportantGI: 0
  m_SelectedEditorRenderState: 3
  m_MinimumChartSize: 4
  m_AutoUVMaxDistance: 0.5
  m_AutoUVMaxAngle: 89
  m_LightmapParameters: {fileID: 0}
  m_SortingLayerID: 0
  m_SortingLayer: 0
  m_SortingOrder: 0
--- !u!33 &351681868
MeshFilter:
  m_ObjectHideFlags: 0
  m_PrefabParentObject: {fileID: 33818683924036576, guid: 8584316ecc4fc3c49a3ba8130275e439,
    type: 2}
  m_PrefabInternal: {fileID: 1327421904}
  m_GameObject: {fileID: 351681866}
  m_Mesh: {fileID: 4300004, guid: eb1625d1c61c79e4da85a39a1f877bc6, type: 3}
--- !u!1001 &451772224
Prefab:
  m_ObjectHideFlags: 0
  serializedVersion: 2
  m_Modification:
    m_TransformParent: {fileID: 962893137}
    m_Modifications:
    - target: {fileID: 4247710962564620, guid: e0cded269fdd0ef42800901eb74eebc7, type: 2}
      propertyPath: m_LocalPosition.x
      value: 1.3427346
      objectReference: {fileID: 0}
    - target: {fileID: 4247710962564620, guid: e0cded269fdd0ef42800901eb74eebc7, type: 2}
      propertyPath: m_LocalPosition.y
      value: 1.6621487
      objectReference: {fileID: 0}
    - target: {fileID: 4247710962564620, guid: e0cded269fdd0ef42800901eb74eebc7, type: 2}
      propertyPath: m_LocalPosition.z
      value: 3.961204
      objectReference: {fileID: 0}
    - target: {fileID: 4247710962564620, guid: e0cded269fdd0ef42800901eb74eebc7, type: 2}
      propertyPath: m_LocalRotation.x
      value: -0
      objectReference: {fileID: 0}
    - target: {fileID: 4247710962564620, guid: e0cded269fdd0ef42800901eb74eebc7, type: 2}
      propertyPath: m_LocalRotation.y
      value: -0
      objectReference: {fileID: 0}
    - target: {fileID: 4247710962564620, guid: e0cded269fdd0ef42800901eb74eebc7, type: 2}
      propertyPath: m_LocalRotation.z
      value: -0
      objectReference: {fileID: 0}
    - target: {fileID: 4247710962564620, guid: e0cded269fdd0ef42800901eb74eebc7, type: 2}
      propertyPath: m_LocalRotation.w
      value: 1
      objectReference: {fileID: 0}
    - target: {fileID: 4247710962564620, guid: e0cded269fdd0ef42800901eb74eebc7, type: 2}
      propertyPath: m_RootOrder
      value: 6
      objectReference: {fileID: 0}
    m_RemovedComponents: []
  m_ParentPrefab: {fileID: 100100000, guid: e0cded269fdd0ef42800901eb74eebc7, type: 2}
  m_RootGameObject: {fileID: 1505060248}
  m_IsPrefabParent: 0
--- !u!4 &451772225
Transform:
  m_ObjectHideFlags: 0
  m_PrefabParentObject: {fileID: 4247710962564620, guid: e0cded269fdd0ef42800901eb74eebc7,
    type: 2}
  m_PrefabInternal: {fileID: 451772224}
  m_GameObject: {fileID: 1505060248}
  m_LocalRotation: {x: -0, y: -0, z: -0, w: 1}
  m_LocalPosition: {x: 1.3427346, y: 1.6621487, z: 3.961204}
  m_LocalScale: {x: 1, y: 1, z: 1}
  m_Children: []
  m_Father: {fileID: 962893137}
  m_RootOrder: 6
  m_LocalEulerAnglesHint: {x: 0, y: 0, z: 0}
--- !u!1 &650643323
GameObject:
  m_ObjectHideFlags: 0
  m_PrefabParentObject: {fileID: 1919405449114248, guid: fe1988a6d969dbf4b87ca6efbd8e433e,
    type: 2}
  m_PrefabInternal: {fileID: 1539231639}
  serializedVersion: 5
  m_Component:
  - component: {fileID: 1539231640}
  - component: {fileID: 650643325}
  - component: {fileID: 650643324}
  m_Layer: 0
  m_Name: Part_09
  m_TagString: Untagged
  m_Icon: {fileID: 0}
  m_NavMeshLayer: 0
  m_StaticEditorFlags: 0
  m_IsActive: 1
--- !u!23 &650643324
MeshRenderer:
  m_ObjectHideFlags: 0
  m_PrefabParentObject: {fileID: 23018556931812980, guid: fe1988a6d969dbf4b87ca6efbd8e433e,
    type: 2}
  m_PrefabInternal: {fileID: 1539231639}
  m_GameObject: {fileID: 650643323}
  m_Enabled: 1
  m_CastShadows: 1
  m_ReceiveShadows: 1
  m_MotionVectors: 1
  m_LightProbeUsage: 1
  m_ReflectionProbeUsage: 1
  m_Materials:
  - {fileID: 2100000, guid: c0e2b2c96376d3946abe974753956658, type: 2}
  m_StaticBatchInfo:
    firstSubMesh: 0
    subMeshCount: 0
  m_StaticBatchRoot: {fileID: 0}
  m_ProbeAnchor: {fileID: 0}
  m_LightProbeVolumeOverride: {fileID: 0}
  m_ScaleInLightmap: 1
  m_PreserveUVs: 0
  m_IgnoreNormalsForChartDetection: 0
  m_ImportantGI: 0
  m_SelectedEditorRenderState: 3
  m_MinimumChartSize: 4
  m_AutoUVMaxDistance: 0.5
  m_AutoUVMaxAngle: 89
  m_LightmapParameters: {fileID: 0}
  m_SortingLayerID: 0
  m_SortingLayer: 0
  m_SortingOrder: 0
--- !u!33 &650643325
MeshFilter:
  m_ObjectHideFlags: 0
  m_PrefabParentObject: {fileID: 33055455926968412, guid: fe1988a6d969dbf4b87ca6efbd8e433e,
    type: 2}
  m_PrefabInternal: {fileID: 1539231639}
  m_GameObject: {fileID: 650643323}
  m_Mesh: {fileID: 4300018, guid: eb1625d1c61c79e4da85a39a1f877bc6, type: 3}
--- !u!1 &704323036
GameObject:
  m_ObjectHideFlags: 0
  m_PrefabParentObject: {fileID: 1069696674441344, guid: 1d68bef23ee59cd4eab3a03bd74d4f83,
    type: 2}
  m_PrefabInternal: {fileID: 1852980463}
  serializedVersion: 5
  m_Component:
  - component: {fileID: 1852980464}
  - component: {fileID: 704323038}
  - component: {fileID: 704323037}
  m_Layer: 0
  m_Name: Part_01
  m_TagString: Untagged
  m_Icon: {fileID: 0}
  m_NavMeshLayer: 0
  m_StaticEditorFlags: 0
  m_IsActive: 1
--- !u!23 &704323037
MeshRenderer:
  m_ObjectHideFlags: 0
  m_PrefabParentObject: {fileID: 23460898256532374, guid: 1d68bef23ee59cd4eab3a03bd74d4f83,
    type: 2}
  m_PrefabInternal: {fileID: 1852980463}
  m_GameObject: {fileID: 704323036}
  m_Enabled: 1
  m_CastShadows: 1
  m_ReceiveShadows: 1
  m_MotionVectors: 1
  m_LightProbeUsage: 1
  m_ReflectionProbeUsage: 1
  m_Materials:
  - {fileID: 2100000, guid: c0e2b2c96376d3946abe974753956658, type: 2}
  m_StaticBatchInfo:
    firstSubMesh: 0
    subMeshCount: 0
  m_StaticBatchRoot: {fileID: 0}
  m_ProbeAnchor: {fileID: 0}
  m_LightProbeVolumeOverride: {fileID: 0}
  m_ScaleInLightmap: 1
  m_PreserveUVs: 0
  m_IgnoreNormalsForChartDetection: 0
  m_ImportantGI: 0
  m_SelectedEditorRenderState: 3
  m_MinimumChartSize: 4
  m_AutoUVMaxDistance: 0.5
  m_AutoUVMaxAngle: 89
  m_LightmapParameters: {fileID: 0}
  m_SortingLayerID: 0
  m_SortingLayer: 0
  m_SortingOrder: 0
--- !u!33 &704323038
MeshFilter:
  m_ObjectHideFlags: 0
  m_PrefabParentObject: {fileID: 33974934178714826, guid: 1d68bef23ee59cd4eab3a03bd74d4f83,
    type: 2}
  m_PrefabInternal: {fileID: 1852980463}
  m_GameObject: {fileID: 704323036}
  m_Mesh: {fileID: 4300032, guid: eb1625d1c61c79e4da85a39a1f877bc6, type: 3}
--- !u!1001 &928213878
Prefab:
  m_ObjectHideFlags: 0
  serializedVersion: 2
  m_Modification:
    m_TransformParent: {fileID: 962893137}
    m_Modifications:
    - target: {fileID: 4969913594548498, guid: 36e4187afe8c72043adb6466adbd12f0, type: 2}
      propertyPath: m_LocalPosition.x
      value: 2.7345963
      objectReference: {fileID: 0}
    - target: {fileID: 4969913594548498, guid: 36e4187afe8c72043adb6466adbd12f0, type: 2}
      propertyPath: m_LocalPosition.y
      value: 1.5605004
      objectReference: {fileID: 0}
    - target: {fileID: 4969913594548498, guid: 36e4187afe8c72043adb6466adbd12f0, type: 2}
      propertyPath: m_LocalPosition.z
      value: 5.338422
      objectReference: {fileID: 0}
    - target: {fileID: 4969913594548498, guid: 36e4187afe8c72043adb6466adbd12f0, type: 2}
      propertyPath: m_LocalRotation.x
      value: -0
      objectReference: {fileID: 0}
    - target: {fileID: 4969913594548498, guid: 36e4187afe8c72043adb6466adbd12f0, type: 2}
      propertyPath: m_LocalRotation.y
      value: -0
      objectReference: {fileID: 0}
    - target: {fileID: 4969913594548498, guid: 36e4187afe8c72043adb6466adbd12f0, type: 2}
      propertyPath: m_LocalRotation.z
      value: -0
      objectReference: {fileID: 0}
    - target: {fileID: 4969913594548498, guid: 36e4187afe8c72043adb6466adbd12f0, type: 2}
      propertyPath: m_LocalRotation.w
      value: 1
      objectReference: {fileID: 0}
    - target: {fileID: 4969913594548498, guid: 36e4187afe8c72043adb6466adbd12f0, type: 2}
      propertyPath: m_RootOrder
      value: 4
      objectReference: {fileID: 0}
    m_RemovedComponents: []
  m_ParentPrefab: {fileID: 100100000, guid: 36e4187afe8c72043adb6466adbd12f0, type: 2}
  m_RootGameObject: {fileID: 1041135329}
  m_IsPrefabParent: 0
--- !u!4 &928213879
Transform:
  m_ObjectHideFlags: 0
  m_PrefabParentObject: {fileID: 4969913594548498, guid: 36e4187afe8c72043adb6466adbd12f0,
    type: 2}
  m_PrefabInternal: {fileID: 928213878}
  m_GameObject: {fileID: 1041135329}
  m_LocalRotation: {x: -0, y: -0, z: -0, w: 1}
  m_LocalPosition: {x: 2.7345963, y: 1.5605004, z: 5.338422}
  m_LocalScale: {x: 1, y: 1, z: 1}
  m_Children: []
  m_Father: {fileID: 962893137}
  m_RootOrder: 4
  m_LocalEulerAnglesHint: {x: 0, y: 0, z: 0}
--- !u!1001 &931318269
Prefab:
  m_ObjectHideFlags: 0
  serializedVersion: 2
  m_Modification:
    m_TransformParent: {fileID: 962893137}
    m_Modifications:
    - target: {fileID: 4784290545445658, guid: dd20f43e2decfc04081bffc33af6c09f, type: 2}
      propertyPath: m_LocalPosition.x
      value: -0.049126625
      objectReference: {fileID: 0}
    - target: {fileID: 4784290545445658, guid: dd20f43e2decfc04081bffc33af6c09f, type: 2}
      propertyPath: m_LocalPosition.y
      value: 1.5605004
      objectReference: {fileID: 0}
    - target: {fileID: 4784290545445658, guid: dd20f43e2decfc04081bffc33af6c09f, type: 2}
      propertyPath: m_LocalPosition.z
      value: 5.338422
      objectReference: {fileID: 0}
    - target: {fileID: 4784290545445658, guid: dd20f43e2decfc04081bffc33af6c09f, type: 2}
      propertyPath: m_LocalRotation.x
      value: -0
      objectReference: {fileID: 0}
    - target: {fileID: 4784290545445658, guid: dd20f43e2decfc04081bffc33af6c09f, type: 2}
      propertyPath: m_LocalRotation.y
      value: -0
      objectReference: {fileID: 0}
    - target: {fileID: 4784290545445658, guid: dd20f43e2decfc04081bffc33af6c09f, type: 2}
      propertyPath: m_LocalRotation.z
      value: -0
      objectReference: {fileID: 0}
    - target: {fileID: 4784290545445658, guid: dd20f43e2decfc04081bffc33af6c09f, type: 2}
      propertyPath: m_LocalRotation.w
      value: 1
      objectReference: {fileID: 0}
    - target: {fileID: 4784290545445658, guid: dd20f43e2decfc04081bffc33af6c09f, type: 2}
      propertyPath: m_RootOrder
      value: 5
      objectReference: {fileID: 0}
    m_RemovedComponents: []
  m_ParentPrefab: {fileID: 100100000, guid: dd20f43e2decfc04081bffc33af6c09f, type: 2}
  m_RootGameObject: {fileID: 1067471370}
  m_IsPrefabParent: 0
--- !u!4 &931318270
Transform:
  m_ObjectHideFlags: 0
  m_PrefabParentObject: {fileID: 4784290545445658, guid: dd20f43e2decfc04081bffc33af6c09f,
    type: 2}
  m_PrefabInternal: {fileID: 931318269}
  m_GameObject: {fileID: 1067471370}
  m_LocalRotation: {x: -0, y: -0, z: -0, w: 1}
  m_LocalPosition: {x: -0.049126625, y: 1.5605004, z: 5.338422}
  m_LocalScale: {x: 1, y: 1, z: 1}
  m_Children: []
  m_Father: {fileID: 962893137}
  m_RootOrder: 5
  m_LocalEulerAnglesHint: {x: 0, y: 0, z: 0}
--- !u!1 &962893136
GameObject:
  m_ObjectHideFlags: 0
  m_PrefabParentObject: {fileID: 0}
  m_PrefabInternal: {fileID: 0}
  serializedVersion: 5
  m_Component:
  - component: {fileID: 962893137}
  m_Layer: 0
  m_Name: Parts
  m_TagString: Untagged
  m_Icon: {fileID: 0}
  m_NavMeshLayer: 0
  m_StaticEditorFlags: 0
  m_IsActive: 1
--- !u!4 &962893137
Transform:
  m_ObjectHideFlags: 0
  m_PrefabParentObject: {fileID: 0}
  m_PrefabInternal: {fileID: 0}
  m_GameObject: {fileID: 962893136}
  m_LocalRotation: {x: 0, y: 0, z: 0, w: 1}
  m_LocalPosition: {x: -1.35, y: -1.6058722, z: -3.301694}
  m_LocalScale: {x: 1, y: 1, z: 1}
  m_Children:
  - {fileID: 1112994445}
  - {fileID: 1852980464}
  - {fileID: 1327421905}
  - {fileID: 1048098337}
  - {fileID: 928213879}
  - {fileID: 931318270}
  - {fileID: 451772225}
  - {fileID: 1873592790}
  - {fileID: 1283036447}
  - {fileID: 1539231640}
  - {fileID: 147828600}
  - {fileID: 1776894976}
  - {fileID: 1755314688}
  - {fileID: 263947051}
  - {fileID: 2083765908}
  - {fileID: 196171988}
  - {fileID: 2013521947}
  - {fileID: 1345616375}
  m_Father: {fileID: 0}
  m_RootOrder: 2
  m_LocalEulerAnglesHint: {x: 0, y: 0, z: 0}
--- !u!1 &1041135329
GameObject:
  m_ObjectHideFlags: 0
  m_PrefabParentObject: {fileID: 1750346324476476, guid: 36e4187afe8c72043adb6466adbd12f0,
    type: 2}
  m_PrefabInternal: {fileID: 928213878}
  serializedVersion: 5
  m_Component:
  - component: {fileID: 928213879}
  - component: {fileID: 1041135331}
  - component: {fileID: 1041135330}
  m_Layer: 0
  m_Name: Part_04
  m_TagString: Untagged
  m_Icon: {fileID: 0}
  m_NavMeshLayer: 0
  m_StaticEditorFlags: 0
  m_IsActive: 1
--- !u!23 &1041135330
MeshRenderer:
  m_ObjectHideFlags: 0
  m_PrefabParentObject: {fileID: 23933757594762200, guid: 36e4187afe8c72043adb6466adbd12f0,
    type: 2}
  m_PrefabInternal: {fileID: 928213878}
  m_GameObject: {fileID: 1041135329}
  m_Enabled: 1
  m_CastShadows: 1
  m_ReceiveShadows: 1
  m_MotionVectors: 1
  m_LightProbeUsage: 1
  m_ReflectionProbeUsage: 1
  m_Materials:
  - {fileID: 2100000, guid: c0e2b2c96376d3946abe974753956658, type: 2}
  m_StaticBatchInfo:
    firstSubMesh: 0
    subMeshCount: 0
  m_StaticBatchRoot: {fileID: 0}
  m_ProbeAnchor: {fileID: 0}
  m_LightProbeVolumeOverride: {fileID: 0}
  m_ScaleInLightmap: 1
  m_PreserveUVs: 0
  m_IgnoreNormalsForChartDetection: 0
  m_ImportantGI: 0
  m_SelectedEditorRenderState: 3
  m_MinimumChartSize: 4
  m_AutoUVMaxDistance: 0.5
  m_AutoUVMaxAngle: 89
  m_LightmapParameters: {fileID: 0}
  m_SortingLayerID: 0
  m_SortingLayer: 0
  m_SortingOrder: 0
--- !u!33 &1041135331
MeshFilter:
  m_ObjectHideFlags: 0
  m_PrefabParentObject: {fileID: 33533900808759834, guid: 36e4187afe8c72043adb6466adbd12f0,
    type: 2}
  m_PrefabInternal: {fileID: 928213878}
  m_GameObject: {fileID: 1041135329}
  m_Mesh: {fileID: 4300008, guid: eb1625d1c61c79e4da85a39a1f877bc6, type: 3}
--- !u!1001 &1048098336
Prefab:
  m_ObjectHideFlags: 0
  serializedVersion: 2
  m_Modification:
    m_TransformParent: {fileID: 962893137}
    m_Modifications:
    - target: {fileID: 4663120343501202, guid: ecd980b711abb974db5a3397e96ffe71, type: 2}
      propertyPath: m_LocalPosition.x
      value: 1.3427346
      objectReference: {fileID: 0}
    - target: {fileID: 4663120343501202, guid: ecd980b711abb974db5a3397e96ffe71, type: 2}
      propertyPath: m_LocalPosition.y
      value: 1.6251439
      objectReference: {fileID: 0}
    - target: {fileID: 4663120343501202, guid: ecd980b711abb974db5a3397e96ffe71, type: 2}
      propertyPath: m_LocalPosition.z
      value: 5.1317186
      objectReference: {fileID: 0}
    - target: {fileID: 4663120343501202, guid: ecd980b711abb974db5a3397e96ffe71, type: 2}
      propertyPath: m_LocalRotation.x
      value: -0
      objectReference: {fileID: 0}
    - target: {fileID: 4663120343501202, guid: ecd980b711abb974db5a3397e96ffe71, type: 2}
      propertyPath: m_LocalRotation.y
      value: -0
      objectReference: {fileID: 0}
    - target: {fileID: 4663120343501202, guid: ecd980b711abb974db5a3397e96ffe71, type: 2}
      propertyPath: m_LocalRotation.z
      value: -0
      objectReference: {fileID: 0}
    - target: {fileID: 4663120343501202, guid: ecd980b711abb974db5a3397e96ffe71, type: 2}
      propertyPath: m_LocalRotation.w
      value: 1
      objectReference: {fileID: 0}
    - target: {fileID: 4663120343501202, guid: ecd980b711abb974db5a3397e96ffe71, type: 2}
      propertyPath: m_RootOrder
      value: 3
      objectReference: {fileID: 0}
    m_RemovedComponents: []
  m_ParentPrefab: {fileID: 100100000, guid: ecd980b711abb974db5a3397e96ffe71, type: 2}
  m_RootGameObject: {fileID: 1713184180}
  m_IsPrefabParent: 0
--- !u!4 &1048098337
Transform:
  m_ObjectHideFlags: 0
  m_PrefabParentObject: {fileID: 4663120343501202, guid: ecd980b711abb974db5a3397e96ffe71,
    type: 2}
  m_PrefabInternal: {fileID: 1048098336}
  m_GameObject: {fileID: 1713184180}
  m_LocalRotation: {x: -0, y: -0, z: -0, w: 1}
  m_LocalPosition: {x: 1.3427346, y: 1.6251439, z: 5.1317186}
  m_LocalScale: {x: 1, y: 1, z: 1}
  m_Children: []
  m_Father: {fileID: 962893137}
  m_RootOrder: 3
  m_LocalEulerAnglesHint: {x: 0, y: 0, z: 0}
--- !u!1 &1055213832
GameObject:
  m_ObjectHideFlags: 0
  m_PrefabParentObject: {fileID: 1296421639602538, guid: f494d902a30466946ab12a16e64b58ef,
    type: 2}
  m_PrefabInternal: {fileID: 1776894975}
  serializedVersion: 5
  m_Component:
  - component: {fileID: 1776894976}
  - component: {fileID: 1055213834}
  - component: {fileID: 1055213833}
  m_Layer: 0
  m_Name: Part_11
  m_TagString: Untagged
  m_Icon: {fileID: 0}
  m_NavMeshLayer: 0
  m_StaticEditorFlags: 0
  m_IsActive: 1
--- !u!23 &1055213833
MeshRenderer:
  m_ObjectHideFlags: 0
  m_PrefabParentObject: {fileID: 23139014328150378, guid: f494d902a30466946ab12a16e64b58ef,
    type: 2}
  m_PrefabInternal: {fileID: 1776894975}
  m_GameObject: {fileID: 1055213832}
  m_Enabled: 1
  m_CastShadows: 1
  m_ReceiveShadows: 1
  m_MotionVectors: 1
  m_LightProbeUsage: 1
  m_ReflectionProbeUsage: 1
  m_Materials:
  - {fileID: 2100000, guid: c0e2b2c96376d3946abe974753956658, type: 2}
  m_StaticBatchInfo:
    firstSubMesh: 0
    subMeshCount: 0
  m_StaticBatchRoot: {fileID: 0}
  m_ProbeAnchor: {fileID: 0}
  m_LightProbeVolumeOverride: {fileID: 0}
  m_ScaleInLightmap: 1
  m_PreserveUVs: 0
  m_IgnoreNormalsForChartDetection: 0
  m_ImportantGI: 0
  m_SelectedEditorRenderState: 3
  m_MinimumChartSize: 4
  m_AutoUVMaxDistance: 0.5
  m_AutoUVMaxAngle: 89
  m_LightmapParameters: {fileID: 0}
  m_SortingLayerID: 0
  m_SortingLayer: 0
  m_SortingOrder: 0
--- !u!33 &1055213834
MeshFilter:
  m_ObjectHideFlags: 0
  m_PrefabParentObject: {fileID: 33146969825771616, guid: f494d902a30466946ab12a16e64b58ef,
    type: 2}
  m_PrefabInternal: {fileID: 1776894975}
  m_GameObject: {fileID: 1055213832}
  m_Mesh: {fileID: 4300022, guid: eb1625d1c61c79e4da85a39a1f877bc6, type: 3}
--- !u!1 &1067471370
GameObject:
  m_ObjectHideFlags: 0
  m_PrefabParentObject: {fileID: 1994677518775958, guid: dd20f43e2decfc04081bffc33af6c09f,
    type: 2}
  m_PrefabInternal: {fileID: 931318269}
  serializedVersion: 5
  m_Component:
  - component: {fileID: 931318270}
  - component: {fileID: 1067471372}
  - component: {fileID: 1067471371}
  m_Layer: 0
  m_Name: Part_05
  m_TagString: Untagged
  m_Icon: {fileID: 0}
  m_NavMeshLayer: 0
  m_StaticEditorFlags: 0
  m_IsActive: 1
--- !u!23 &1067471371
MeshRenderer:
  m_ObjectHideFlags: 0
  m_PrefabParentObject: {fileID: 23801565504350488, guid: dd20f43e2decfc04081bffc33af6c09f,
    type: 2}
  m_PrefabInternal: {fileID: 931318269}
  m_GameObject: {fileID: 1067471370}
  m_Enabled: 1
  m_CastShadows: 1
  m_ReceiveShadows: 1
  m_MotionVectors: 1
  m_LightProbeUsage: 1
  m_ReflectionProbeUsage: 1
  m_Materials:
  - {fileID: 2100000, guid: c0e2b2c96376d3946abe974753956658, type: 2}
  m_StaticBatchInfo:
    firstSubMesh: 0
    subMeshCount: 0
  m_StaticBatchRoot: {fileID: 0}
  m_ProbeAnchor: {fileID: 0}
  m_LightProbeVolumeOverride: {fileID: 0}
  m_ScaleInLightmap: 1
  m_PreserveUVs: 0
  m_IgnoreNormalsForChartDetection: 0
  m_ImportantGI: 0
  m_SelectedEditorRenderState: 3
  m_MinimumChartSize: 4
  m_AutoUVMaxDistance: 0.5
  m_AutoUVMaxAngle: 89
  m_LightmapParameters: {fileID: 0}
  m_SortingLayerID: 0
  m_SortingLayer: 0
  m_SortingOrder: 0
--- !u!33 &1067471372
MeshFilter:
  m_ObjectHideFlags: 0
  m_PrefabParentObject: {fileID: 33576047632427262, guid: dd20f43e2decfc04081bffc33af6c09f,
    type: 2}
  m_PrefabInternal: {fileID: 931318269}
  m_GameObject: {fileID: 1067471370}
  m_Mesh: {fileID: 4300010, guid: eb1625d1c61c79e4da85a39a1f877bc6, type: 3}
--- !u!1001 &1112994444
Prefab:
  m_ObjectHideFlags: 0
  serializedVersion: 2
  m_Modification:
    m_TransformParent: {fileID: 962893137}
    m_Modifications:
    - target: {fileID: 4412496935336974, guid: 0b57eccd7152cf64e8a9bb9273076cee, type: 2}
      propertyPath: m_LocalPosition.x
      value: 0.046074867
      objectReference: {fileID: 0}
    - target: {fileID: 4412496935336974, guid: 0b57eccd7152cf64e8a9bb9273076cee, type: 2}
      propertyPath: m_LocalPosition.y
      value: 1.5110617
      objectReference: {fileID: 0}
    - target: {fileID: 4412496935336974, guid: 0b57eccd7152cf64e8a9bb9273076cee, type: 2}
      propertyPath: m_LocalPosition.z
      value: -2.1607475
      objectReference: {fileID: 0}
    - target: {fileID: 4412496935336974, guid: 0b57eccd7152cf64e8a9bb9273076cee, type: 2}
      propertyPath: m_LocalRotation.x
      value: -0
      objectReference: {fileID: 0}
    - target: {fileID: 4412496935336974, guid: 0b57eccd7152cf64e8a9bb9273076cee, type: 2}
      propertyPath: m_LocalRotation.y
      value: -0
      objectReference: {fileID: 0}
    - target: {fileID: 4412496935336974, guid: 0b57eccd7152cf64e8a9bb9273076cee, type: 2}
      propertyPath: m_LocalRotation.z
      value: -0
      objectReference: {fileID: 0}
    - target: {fileID: 4412496935336974, guid: 0b57eccd7152cf64e8a9bb9273076cee, type: 2}
      propertyPath: m_LocalRotation.w
      value: 1
      objectReference: {fileID: 0}
    - target: {fileID: 4412496935336974, guid: 0b57eccd7152cf64e8a9bb9273076cee, type: 2}
      propertyPath: m_RootOrder
      value: 0
      objectReference: {fileID: 0}
    m_RemovedComponents: []
  m_ParentPrefab: {fileID: 100100000, guid: 0b57eccd7152cf64e8a9bb9273076cee, type: 2}
  m_RootGameObject: {fileID: 1687146364}
  m_IsPrefabParent: 0
--- !u!4 &1112994445
Transform:
  m_ObjectHideFlags: 0
  m_PrefabParentObject: {fileID: 4412496935336974, guid: 0b57eccd7152cf64e8a9bb9273076cee,
    type: 2}
  m_PrefabInternal: {fileID: 1112994444}
  m_GameObject: {fileID: 1687146364}
  m_LocalRotation: {x: -0, y: -0, z: -0, w: 1}
  m_LocalPosition: {x: 0.046074867, y: 1.5110617, z: -2.1607475}
  m_LocalScale: {x: 1, y: 1, z: 1}
  m_Children: []
  m_Father: {fileID: 962893137}
  m_RootOrder: 0
  m_LocalEulerAnglesHint: {x: 0, y: 0, z: 0}
--- !u!1 &1161708202
GameObject:
  m_ObjectHideFlags: 0
  m_PrefabParentObject: {fileID: 1069835261434840, guid: 32cef39e2a3e7b4438c4f1b6e66c715b,
    type: 2}
  m_PrefabInternal: {fileID: 263947050}
  serializedVersion: 5
  m_Component:
  - component: {fileID: 263947051}
  - component: {fileID: 1161708204}
  - component: {fileID: 1161708203}
  m_Layer: 0
  m_Name: Part_13
  m_TagString: Untagged
  m_Icon: {fileID: 0}
  m_NavMeshLayer: 0
  m_StaticEditorFlags: 0
  m_IsActive: 1
--- !u!23 &1161708203
MeshRenderer:
  m_ObjectHideFlags: 0
  m_PrefabParentObject: {fileID: 23320378558928798, guid: 32cef39e2a3e7b4438c4f1b6e66c715b,
    type: 2}
  m_PrefabInternal: {fileID: 263947050}
  m_GameObject: {fileID: 1161708202}
  m_Enabled: 1
  m_CastShadows: 1
  m_ReceiveShadows: 1
  m_MotionVectors: 1
  m_LightProbeUsage: 1
  m_ReflectionProbeUsage: 1
  m_Materials:
  - {fileID: 2100000, guid: c0e2b2c96376d3946abe974753956658, type: 2}
  m_StaticBatchInfo:
    firstSubMesh: 0
    subMeshCount: 0
  m_StaticBatchRoot: {fileID: 0}
  m_ProbeAnchor: {fileID: 0}
  m_LightProbeVolumeOverride: {fileID: 0}
  m_ScaleInLightmap: 1
  m_PreserveUVs: 0
  m_IgnoreNormalsForChartDetection: 0
  m_ImportantGI: 0
  m_SelectedEditorRenderState: 3
  m_MinimumChartSize: 4
  m_AutoUVMaxDistance: 0.5
  m_AutoUVMaxAngle: 89
  m_LightmapParameters: {fileID: 0}
  m_SortingLayerID: 0
  m_SortingLayer: 0
  m_SortingOrder: 0
--- !u!33 &1161708204
MeshFilter:
  m_ObjectHideFlags: 0
  m_PrefabParentObject: {fileID: 33372197777866304, guid: 32cef39e2a3e7b4438c4f1b6e66c715b,
    type: 2}
  m_PrefabInternal: {fileID: 263947050}
  m_GameObject: {fileID: 1161708202}
  m_Mesh: {fileID: 4300026, guid: eb1625d1c61c79e4da85a39a1f877bc6, type: 3}
--- !u!1001 &1283036446
Prefab:
  m_ObjectHideFlags: 0
  serializedVersion: 2
  m_Modification:
    m_TransformParent: {fileID: 962893137}
    m_Modifications:
    - target: {fileID: 4332142780045980, guid: 125da5139de77c64e9b43d7020e7ff65, type: 2}
      propertyPath: m_LocalPosition.x
      value: -0.058576226
      objectReference: {fileID: 0}
    - target: {fileID: 4332142780045980, guid: 125da5139de77c64e9b43d7020e7ff65, type: 2}
      propertyPath: m_LocalPosition.y
      value: 1.6305784
      objectReference: {fileID: 0}
    - target: {fileID: 4332142780045980, guid: 125da5139de77c64e9b43d7020e7ff65, type: 2}
      propertyPath: m_LocalPosition.z
      value: 2.619635
      objectReference: {fileID: 0}
    - target: {fileID: 4332142780045980, guid: 125da5139de77c64e9b43d7020e7ff65, type: 2}
      propertyPath: m_LocalRotation.x
      value: -0
      objectReference: {fileID: 0}
    - target: {fileID: 4332142780045980, guid: 125da5139de77c64e9b43d7020e7ff65, type: 2}
      propertyPath: m_LocalRotation.y
      value: -0
      objectReference: {fileID: 0}
    - target: {fileID: 4332142780045980, guid: 125da5139de77c64e9b43d7020e7ff65, type: 2}
      propertyPath: m_LocalRotation.z
      value: -0
      objectReference: {fileID: 0}
    - target: {fileID: 4332142780045980, guid: 125da5139de77c64e9b43d7020e7ff65, type: 2}
      propertyPath: m_LocalRotation.w
      value: 1
      objectReference: {fileID: 0}
    - target: {fileID: 4332142780045980, guid: 125da5139de77c64e9b43d7020e7ff65, type: 2}
      propertyPath: m_RootOrder
      value: 8
      objectReference: {fileID: 0}
    m_RemovedComponents: []
  m_ParentPrefab: {fileID: 100100000, guid: 125da5139de77c64e9b43d7020e7ff65, type: 2}
  m_RootGameObject: {fileID: 2106561555}
  m_IsPrefabParent: 0
--- !u!4 &1283036447
Transform:
  m_ObjectHideFlags: 0
  m_PrefabParentObject: {fileID: 4332142780045980, guid: 125da5139de77c64e9b43d7020e7ff65,
    type: 2}
  m_PrefabInternal: {fileID: 1283036446}
  m_GameObject: {fileID: 2106561555}
  m_LocalRotation: {x: -0, y: -0, z: -0, w: 1}
  m_LocalPosition: {x: -0.058576226, y: 1.6305784, z: 2.619635}
  m_LocalScale: {x: 1, y: 1, z: 1}
  m_Children: []
  m_Father: {fileID: 962893137}
  m_RootOrder: 8
  m_LocalEulerAnglesHint: {x: 0, y: 0, z: 0}
--- !u!1 &1326240872
GameObject:
  m_ObjectHideFlags: 0
  m_PrefabParentObject: {fileID: 1550274973839454, guid: 11cdb3fb21e6d2740a7a6fc0420bfa19,
    type: 2}
  m_PrefabInternal: {fileID: 1345616374}
  serializedVersion: 5
  m_Component:
  - component: {fileID: 1345616375}
  - component: {fileID: 1326240874}
  - component: {fileID: 1326240873}
  m_Layer: 0
  m_Name: Part_17
  m_TagString: Untagged
  m_Icon: {fileID: 0}
  m_NavMeshLayer: 0
  m_StaticEditorFlags: 0
  m_IsActive: 1
--- !u!23 &1326240873
MeshRenderer:
  m_ObjectHideFlags: 0
  m_PrefabParentObject: {fileID: 23360812341327298, guid: 11cdb3fb21e6d2740a7a6fc0420bfa19,
    type: 2}
  m_PrefabInternal: {fileID: 1345616374}
  m_GameObject: {fileID: 1326240872}
  m_Enabled: 1
  m_CastShadows: 1
  m_ReceiveShadows: 1
  m_MotionVectors: 1
  m_LightProbeUsage: 1
  m_ReflectionProbeUsage: 1
  m_Materials:
  - {fileID: 2100000, guid: c0e2b2c96376d3946abe974753956658, type: 2}
  m_StaticBatchInfo:
    firstSubMesh: 0
    subMeshCount: 0
  m_StaticBatchRoot: {fileID: 0}
  m_ProbeAnchor: {fileID: 0}
  m_LightProbeVolumeOverride: {fileID: 0}
  m_ScaleInLightmap: 1
  m_PreserveUVs: 0
  m_IgnoreNormalsForChartDetection: 0
  m_ImportantGI: 0
  m_SelectedEditorRenderState: 3
  m_MinimumChartSize: 4
  m_AutoUVMaxDistance: 0.5
  m_AutoUVMaxAngle: 89
  m_LightmapParameters: {fileID: 0}
  m_SortingLayerID: 0
  m_SortingLayer: 0
  m_SortingOrder: 0
--- !u!33 &1326240874
MeshFilter:
  m_ObjectHideFlags: 0
  m_PrefabParentObject: {fileID: 33504026957463848, guid: 11cdb3fb21e6d2740a7a6fc0420bfa19,
    type: 2}
  m_PrefabInternal: {fileID: 1345616374}
  m_GameObject: {fileID: 1326240872}
  m_Mesh: {fileID: 4300002, guid: eb1625d1c61c79e4da85a39a1f877bc6, type: 3}
--- !u!1001 &1327421904
Prefab:
  m_ObjectHideFlags: 0
  serializedVersion: 2
  m_Modification:
    m_TransformParent: {fileID: 962893137}
    m_Modifications:
    - target: {fileID: 4564001832751294, guid: 8584316ecc4fc3c49a3ba8130275e439, type: 2}
      propertyPath: m_LocalPosition.x
      value: 1.3427346
      objectReference: {fileID: 0}
    - target: {fileID: 4564001832751294, guid: 8584316ecc4fc3c49a3ba8130275e439, type: 2}
      propertyPath: m_LocalPosition.y
      value: 1.5788724
      objectReference: {fileID: 0}
    - target: {fileID: 4564001832751294, guid: 8584316ecc4fc3c49a3ba8130275e439, type: 2}
      propertyPath: m_LocalPosition.z
      value: 6.6067
      objectReference: {fileID: 0}
    - target: {fileID: 4564001832751294, guid: 8584316ecc4fc3c49a3ba8130275e439, type: 2}
      propertyPath: m_LocalRotation.x
      value: -0
      objectReference: {fileID: 0}
    - target: {fileID: 4564001832751294, guid: 8584316ecc4fc3c49a3ba8130275e439, type: 2}
      propertyPath: m_LocalRotation.y
      value: -0
      objectReference: {fileID: 0}
    - target: {fileID: 4564001832751294, guid: 8584316ecc4fc3c49a3ba8130275e439, type: 2}
      propertyPath: m_LocalRotation.z
      value: -0
      objectReference: {fileID: 0}
    - target: {fileID: 4564001832751294, guid: 8584316ecc4fc3c49a3ba8130275e439, type: 2}
      propertyPath: m_LocalRotation.w
      value: 1
      objectReference: {fileID: 0}
    - target: {fileID: 4564001832751294, guid: 8584316ecc4fc3c49a3ba8130275e439, type: 2}
      propertyPath: m_RootOrder
      value: 2
      objectReference: {fileID: 0}
    m_RemovedComponents: []
  m_ParentPrefab: {fileID: 100100000, guid: 8584316ecc4fc3c49a3ba8130275e439, type: 2}
  m_RootGameObject: {fileID: 351681866}
  m_IsPrefabParent: 0
--- !u!4 &1327421905
Transform:
  m_ObjectHideFlags: 0
  m_PrefabParentObject: {fileID: 4564001832751294, guid: 8584316ecc4fc3c49a3ba8130275e439,
    type: 2}
  m_PrefabInternal: {fileID: 1327421904}
  m_GameObject: {fileID: 351681866}
  m_LocalRotation: {x: -0, y: -0, z: -0, w: 1}
  m_LocalPosition: {x: 1.3427346, y: 1.5788724, z: 6.6067}
  m_LocalScale: {x: 1, y: 1, z: 1}
  m_Children: []
  m_Father: {fileID: 962893137}
  m_RootOrder: 2
  m_LocalEulerAnglesHint: {x: 0, y: 0, z: 0}
--- !u!1001 &1345616374
Prefab:
  m_ObjectHideFlags: 0
  serializedVersion: 2
  m_Modification:
    m_TransformParent: {fileID: 962893137}
    m_Modifications:
    - target: {fileID: 4019717741273172, guid: 11cdb3fb21e6d2740a7a6fc0420bfa19, type: 2}
      propertyPath: m_LocalPosition.x
      value: 1.3427346
      objectReference: {fileID: 0}
    - target: {fileID: 4019717741273172, guid: 11cdb3fb21e6d2740a7a6fc0420bfa19, type: 2}
      propertyPath: m_LocalPosition.y
      value: 1.5806977
      objectReference: {fileID: 0}
    - target: {fileID: 4019717741273172, guid: 11cdb3fb21e6d2740a7a6fc0420bfa19, type: 2}
      propertyPath: m_LocalPosition.z
      value: 8.016893
      objectReference: {fileID: 0}
    - target: {fileID: 4019717741273172, guid: 11cdb3fb21e6d2740a7a6fc0420bfa19, type: 2}
      propertyPath: m_LocalRotation.x
      value: -0
      objectReference: {fileID: 0}
    - target: {fileID: 4019717741273172, guid: 11cdb3fb21e6d2740a7a6fc0420bfa19, type: 2}
      propertyPath: m_LocalRotation.y
      value: -0
      objectReference: {fileID: 0}
    - target: {fileID: 4019717741273172, guid: 11cdb3fb21e6d2740a7a6fc0420bfa19, type: 2}
      propertyPath: m_LocalRotation.z
      value: -0
      objectReference: {fileID: 0}
    - target: {fileID: 4019717741273172, guid: 11cdb3fb21e6d2740a7a6fc0420bfa19, type: 2}
      propertyPath: m_LocalRotation.w
      value: 1
      objectReference: {fileID: 0}
    - target: {fileID: 4019717741273172, guid: 11cdb3fb21e6d2740a7a6fc0420bfa19, type: 2}
      propertyPath: m_RootOrder
      value: 17
      objectReference: {fileID: 0}
    m_RemovedComponents: []
  m_ParentPrefab: {fileID: 100100000, guid: 11cdb3fb21e6d2740a7a6fc0420bfa19, type: 2}
  m_RootGameObject: {fileID: 1326240872}
  m_IsPrefabParent: 0
--- !u!4 &1345616375
Transform:
  m_ObjectHideFlags: 0
  m_PrefabParentObject: {fileID: 4019717741273172, guid: 11cdb3fb21e6d2740a7a6fc0420bfa19,
    type: 2}
  m_PrefabInternal: {fileID: 1345616374}
  m_GameObject: {fileID: 1326240872}
  m_LocalRotation: {x: -0, y: -0, z: -0, w: 1}
  m_LocalPosition: {x: 1.3427346, y: 1.5806977, z: 8.016893}
  m_LocalScale: {x: 1, y: 1, z: 1}
  m_Children: []
  m_Father: {fileID: 962893137}
  m_RootOrder: 17
  m_LocalEulerAnglesHint: {x: 0, y: 0, z: 0}
--- !u!1 &1505060248
GameObject:
  m_ObjectHideFlags: 0
  m_PrefabParentObject: {fileID: 1730733726531302, guid: e0cded269fdd0ef42800901eb74eebc7,
    type: 2}
  m_PrefabInternal: {fileID: 451772224}
  serializedVersion: 5
  m_Component:
  - component: {fileID: 451772225}
  - component: {fileID: 1505060250}
  - component: {fileID: 1505060249}
  m_Layer: 0
  m_Name: Part_06
  m_TagString: Untagged
  m_Icon: {fileID: 0}
  m_NavMeshLayer: 0
  m_StaticEditorFlags: 0
  m_IsActive: 1
--- !u!23 &1505060249
MeshRenderer:
  m_ObjectHideFlags: 0
  m_PrefabParentObject: {fileID: 23781186099563678, guid: e0cded269fdd0ef42800901eb74eebc7,
    type: 2}
  m_PrefabInternal: {fileID: 451772224}
  m_GameObject: {fileID: 1505060248}
  m_Enabled: 1
  m_CastShadows: 1
  m_ReceiveShadows: 1
  m_MotionVectors: 1
  m_LightProbeUsage: 1
  m_ReflectionProbeUsage: 1
  m_Materials:
  - {fileID: 2100000, guid: c0e2b2c96376d3946abe974753956658, type: 2}
  m_StaticBatchInfo:
    firstSubMesh: 0
    subMeshCount: 0
  m_StaticBatchRoot: {fileID: 0}
  m_ProbeAnchor: {fileID: 0}
  m_LightProbeVolumeOverride: {fileID: 0}
  m_ScaleInLightmap: 1
  m_PreserveUVs: 0
  m_IgnoreNormalsForChartDetection: 0
  m_ImportantGI: 0
  m_SelectedEditorRenderState: 3
  m_MinimumChartSize: 4
  m_AutoUVMaxDistance: 0.5
  m_AutoUVMaxAngle: 89
  m_LightmapParameters: {fileID: 0}
  m_SortingLayerID: 0
  m_SortingLayer: 0
  m_SortingOrder: 0
--- !u!33 &1505060250
MeshFilter:
  m_ObjectHideFlags: 0
  m_PrefabParentObject: {fileID: 33628619620254158, guid: e0cded269fdd0ef42800901eb74eebc7,
    type: 2}
  m_PrefabInternal: {fileID: 451772224}
  m_GameObject: {fileID: 1505060248}
  m_Mesh: {fileID: 4300012, guid: eb1625d1c61c79e4da85a39a1f877bc6, type: 3}
--- !u!1001 &1539231639
Prefab:
  m_ObjectHideFlags: 0
  serializedVersion: 2
  m_Modification:
    m_TransformParent: {fileID: 962893137}
    m_Modifications:
    - target: {fileID: 4578736442222154, guid: fe1988a6d969dbf4b87ca6efbd8e433e, type: 2}
      propertyPath: m_LocalPosition.x
      value: 2.7440457
      objectReference: {fileID: 0}
    - target: {fileID: 4578736442222154, guid: fe1988a6d969dbf4b87ca6efbd8e433e, type: 2}
      propertyPath: m_LocalPosition.y
      value: 1.6305784
      objectReference: {fileID: 0}
    - target: {fileID: 4578736442222154, guid: fe1988a6d969dbf4b87ca6efbd8e433e, type: 2}
      propertyPath: m_LocalPosition.z
      value: 2.619635
      objectReference: {fileID: 0}
    - target: {fileID: 4578736442222154, guid: fe1988a6d969dbf4b87ca6efbd8e433e, type: 2}
      propertyPath: m_LocalRotation.x
      value: -0
      objectReference: {fileID: 0}
    - target: {fileID: 4578736442222154, guid: fe1988a6d969dbf4b87ca6efbd8e433e, type: 2}
      propertyPath: m_LocalRotation.y
      value: -0
      objectReference: {fileID: 0}
    - target: {fileID: 4578736442222154, guid: fe1988a6d969dbf4b87ca6efbd8e433e, type: 2}
      propertyPath: m_LocalRotation.z
      value: -0
      objectReference: {fileID: 0}
    - target: {fileID: 4578736442222154, guid: fe1988a6d969dbf4b87ca6efbd8e433e, type: 2}
      propertyPath: m_LocalRotation.w
      value: 1
      objectReference: {fileID: 0}
    - target: {fileID: 4578736442222154, guid: fe1988a6d969dbf4b87ca6efbd8e433e, type: 2}
      propertyPath: m_RootOrder
      value: 9
      objectReference: {fileID: 0}
    m_RemovedComponents: []
  m_ParentPrefab: {fileID: 100100000, guid: fe1988a6d969dbf4b87ca6efbd8e433e, type: 2}
  m_RootGameObject: {fileID: 650643323}
  m_IsPrefabParent: 0
--- !u!4 &1539231640
Transform:
  m_ObjectHideFlags: 0
  m_PrefabParentObject: {fileID: 4578736442222154, guid: fe1988a6d969dbf4b87ca6efbd8e433e,
    type: 2}
  m_PrefabInternal: {fileID: 1539231639}
  m_GameObject: {fileID: 650643323}
  m_LocalRotation: {x: -0, y: -0, z: -0, w: 1}
  m_LocalPosition: {x: 2.7440457, y: 1.6305784, z: 2.619635}
  m_LocalScale: {x: 1, y: 1, z: 1}
  m_Children: []
  m_Father: {fileID: 962893137}
  m_RootOrder: 9
  m_LocalEulerAnglesHint: {x: 0, y: 0, z: 0}
--- !u!1 &1687146364
GameObject:
  m_ObjectHideFlags: 0
  m_PrefabParentObject: {fileID: 1681440028034470, guid: 0b57eccd7152cf64e8a9bb9273076cee,
    type: 2}
  m_PrefabInternal: {fileID: 1112994444}
  serializedVersion: 5
  m_Component:
  - component: {fileID: 1112994445}
  - component: {fileID: 1687146366}
  - component: {fileID: 1687146365}
  m_Layer: 0
  m_Name: Part_00
  m_TagString: Untagged
  m_Icon: {fileID: 0}
  m_NavMeshLayer: 0
  m_StaticEditorFlags: 0
  m_IsActive: 1
--- !u!23 &1687146365
MeshRenderer:
  m_ObjectHideFlags: 0
  m_PrefabParentObject: {fileID: 23073897032513112, guid: 0b57eccd7152cf64e8a9bb9273076cee,
    type: 2}
  m_PrefabInternal: {fileID: 1112994444}
  m_GameObject: {fileID: 1687146364}
  m_Enabled: 1
  m_CastShadows: 1
  m_ReceiveShadows: 1
  m_MotionVectors: 1
  m_LightProbeUsage: 1
  m_ReflectionProbeUsage: 1
  m_Materials:
  - {fileID: 2100000, guid: c0e2b2c96376d3946abe974753956658, type: 2}
  m_StaticBatchInfo:
    firstSubMesh: 0
    subMeshCount: 0
  m_StaticBatchRoot: {fileID: 0}
  m_ProbeAnchor: {fileID: 0}
  m_LightProbeVolumeOverride: {fileID: 0}
  m_ScaleInLightmap: 1
  m_PreserveUVs: 0
  m_IgnoreNormalsForChartDetection: 0
  m_ImportantGI: 0
  m_SelectedEditorRenderState: 3
  m_MinimumChartSize: 4
  m_AutoUVMaxDistance: 0.5
  m_AutoUVMaxAngle: 89
  m_LightmapParameters: {fileID: 0}
  m_SortingLayerID: 0
  m_SortingLayer: 0
  m_SortingOrder: 0
--- !u!33 &1687146366
MeshFilter:
  m_ObjectHideFlags: 0
  m_PrefabParentObject: {fileID: 33578569434440074, guid: 0b57eccd7152cf64e8a9bb9273076cee,
    type: 2}
  m_PrefabInternal: {fileID: 1112994444}
  m_GameObject: {fileID: 1687146364}
  m_Mesh: {fileID: 4300000, guid: eb1625d1c61c79e4da85a39a1f877bc6, type: 3}
--- !u!1 &1713184180
GameObject:
  m_ObjectHideFlags: 0
  m_PrefabParentObject: {fileID: 1527619397163924, guid: ecd980b711abb974db5a3397e96ffe71,
    type: 2}
  m_PrefabInternal: {fileID: 1048098336}
  serializedVersion: 5
  m_Component:
  - component: {fileID: 1048098337}
  - component: {fileID: 1713184182}
  - component: {fileID: 1713184181}
  m_Layer: 0
  m_Name: Part_03
  m_TagString: Untagged
  m_Icon: {fileID: 0}
  m_NavMeshLayer: 0
  m_StaticEditorFlags: 0
  m_IsActive: 1
--- !u!23 &1713184181
MeshRenderer:
  m_ObjectHideFlags: 0
  m_PrefabParentObject: {fileID: 23980464233776422, guid: ecd980b711abb974db5a3397e96ffe71,
    type: 2}
  m_PrefabInternal: {fileID: 1048098336}
  m_GameObject: {fileID: 1713184180}
  m_Enabled: 1
  m_CastShadows: 1
  m_ReceiveShadows: 1
  m_MotionVectors: 1
  m_LightProbeUsage: 1
  m_ReflectionProbeUsage: 1
  m_Materials:
  - {fileID: 2100000, guid: c0e2b2c96376d3946abe974753956658, type: 2}
  m_StaticBatchInfo:
    firstSubMesh: 0
    subMeshCount: 0
  m_StaticBatchRoot: {fileID: 0}
  m_ProbeAnchor: {fileID: 0}
  m_LightProbeVolumeOverride: {fileID: 0}
  m_ScaleInLightmap: 1
  m_PreserveUVs: 0
  m_IgnoreNormalsForChartDetection: 0
  m_ImportantGI: 0
  m_SelectedEditorRenderState: 3
  m_MinimumChartSize: 4
  m_AutoUVMaxDistance: 0.5
  m_AutoUVMaxAngle: 89
  m_LightmapParameters: {fileID: 0}
  m_SortingLayerID: 0
  m_SortingLayer: 0
  m_SortingOrder: 0
--- !u!33 &1713184182
MeshFilter:
  m_ObjectHideFlags: 0
  m_PrefabParentObject: {fileID: 33807151818161230, guid: ecd980b711abb974db5a3397e96ffe71,
    type: 2}
  m_PrefabInternal: {fileID: 1048098336}
  m_GameObject: {fileID: 1713184180}
  m_Mesh: {fileID: 4300006, guid: eb1625d1c61c79e4da85a39a1f877bc6, type: 3}
--- !u!1001 &1755314687
Prefab:
  m_ObjectHideFlags: 0
  serializedVersion: 2
  m_Modification:
    m_TransformParent: {fileID: 962893137}
    m_Modifications:
    - target: {fileID: 4318201697053960, guid: 982125fb31d01d04facaa6b3a11c5a2b, type: 2}
      propertyPath: m_LocalPosition.x
      value: 2.760006
      objectReference: {fileID: 0}
    - target: {fileID: 4318201697053960, guid: 982125fb31d01d04facaa6b3a11c5a2b, type: 2}
      propertyPath: m_LocalPosition.y
      value: 1.533117
      objectReference: {fileID: 0}
    - target: {fileID: 4318201697053960, guid: 982125fb31d01d04facaa6b3a11c5a2b, type: 2}
      propertyPath: m_LocalPosition.z
      value: 0.017881632
      objectReference: {fileID: 0}
    - target: {fileID: 4318201697053960, guid: 982125fb31d01d04facaa6b3a11c5a2b, type: 2}
      propertyPath: m_LocalRotation.x
      value: -0
      objectReference: {fileID: 0}
    - target: {fileID: 4318201697053960, guid: 982125fb31d01d04facaa6b3a11c5a2b, type: 2}
      propertyPath: m_LocalRotation.y
      value: -0
      objectReference: {fileID: 0}
    - target: {fileID: 4318201697053960, guid: 982125fb31d01d04facaa6b3a11c5a2b, type: 2}
      propertyPath: m_LocalRotation.z
      value: -0
      objectReference: {fileID: 0}
    - target: {fileID: 4318201697053960, guid: 982125fb31d01d04facaa6b3a11c5a2b, type: 2}
      propertyPath: m_LocalRotation.w
      value: 1
      objectReference: {fileID: 0}
    - target: {fileID: 4318201697053960, guid: 982125fb31d01d04facaa6b3a11c5a2b, type: 2}
      propertyPath: m_RootOrder
      value: 12
      objectReference: {fileID: 0}
    m_RemovedComponents: []
  m_ParentPrefab: {fileID: 100100000, guid: 982125fb31d01d04facaa6b3a11c5a2b, type: 2}
  m_RootGameObject: {fileID: 1967508266}
  m_IsPrefabParent: 0
--- !u!4 &1755314688
Transform:
  m_ObjectHideFlags: 0
  m_PrefabParentObject: {fileID: 4318201697053960, guid: 982125fb31d01d04facaa6b3a11c5a2b,
    type: 2}
  m_PrefabInternal: {fileID: 1755314687}
  m_GameObject: {fileID: 1967508266}
  m_LocalRotation: {x: -0, y: -0, z: -0, w: 1}
  m_LocalPosition: {x: 2.760006, y: 1.533117, z: 0.017881632}
  m_LocalScale: {x: 1, y: 1, z: 1}
  m_Children: []
  m_Father: {fileID: 962893137}
  m_RootOrder: 12
  m_LocalEulerAnglesHint: {x: 0, y: 0, z: 0}
--- !u!1 &1765158819
GameObject:
  m_ObjectHideFlags: 0
  m_PrefabParentObject: {fileID: 1225820755664776, guid: 522c6f5ea8c2bdf4e913913c72ec03fb,
    type: 2}
  m_PrefabInternal: {fileID: 1873592789}
  serializedVersion: 5
  m_Component:
  - component: {fileID: 1873592790}
  - component: {fileID: 1765158821}
  - component: {fileID: 1765158820}
  m_Layer: 0
  m_Name: Part_07
  m_TagString: Untagged
  m_Icon: {fileID: 0}
  m_NavMeshLayer: 0
  m_StaticEditorFlags: 0
  m_IsActive: 1
--- !u!23 &1765158820
MeshRenderer:
  m_ObjectHideFlags: 0
  m_PrefabParentObject: {fileID: 23652625483078116, guid: 522c6f5ea8c2bdf4e913913c72ec03fb,
    type: 2}
  m_PrefabInternal: {fileID: 1873592789}
  m_GameObject: {fileID: 1765158819}
  m_Enabled: 1
  m_CastShadows: 1
  m_ReceiveShadows: 1
  m_MotionVectors: 1
  m_LightProbeUsage: 1
  m_ReflectionProbeUsage: 1
  m_Materials:
  - {fileID: 2100000, guid: c0e2b2c96376d3946abe974753956658, type: 2}
  m_StaticBatchInfo:
    firstSubMesh: 0
    subMeshCount: 0
  m_StaticBatchRoot: {fileID: 0}
  m_ProbeAnchor: {fileID: 0}
  m_LightProbeVolumeOverride: {fileID: 0}
  m_ScaleInLightmap: 1
  m_PreserveUVs: 0
  m_IgnoreNormalsForChartDetection: 0
  m_ImportantGI: 0
  m_SelectedEditorRenderState: 3
  m_MinimumChartSize: 4
  m_AutoUVMaxDistance: 0.5
  m_AutoUVMaxAngle: 89
  m_LightmapParameters: {fileID: 0}
  m_SortingLayerID: 0
  m_SortingLayer: 0
  m_SortingOrder: 0
--- !u!33 &1765158821
MeshFilter:
  m_ObjectHideFlags: 0
  m_PrefabParentObject: {fileID: 33462262598222960, guid: 522c6f5ea8c2bdf4e913913c72ec03fb,
    type: 2}
  m_PrefabInternal: {fileID: 1873592789}
  m_GameObject: {fileID: 1765158819}
  m_Mesh: {fileID: 4300014, guid: eb1625d1c61c79e4da85a39a1f877bc6, type: 3}
--- !u!1001 &1776894975
Prefab:
  m_ObjectHideFlags: 0
  serializedVersion: 2
  m_Modification:
    m_TransformParent: {fileID: 962893137}
    m_Modifications:
    - target: {fileID: 4640550437719280, guid: f494d902a30466946ab12a16e64b58ef, type: 2}
      propertyPath: m_LocalPosition.x
      value: 1.3427348
      objectReference: {fileID: 0}
    - target: {fileID: 4640550437719280, guid: f494d902a30466946ab12a16e64b58ef, type: 2}
      propertyPath: m_LocalPosition.y
      value: 1.533117
      objectReference: {fileID: 0}
    - target: {fileID: 4640550437719280, guid: f494d902a30466946ab12a16e64b58ef, type: 2}
      propertyPath: m_LocalPosition.z
      value: 0.03197527
      objectReference: {fileID: 0}
    - target: {fileID: 4640550437719280, guid: f494d902a30466946ab12a16e64b58ef, type: 2}
      propertyPath: m_LocalRotation.x
      value: -0
      objectReference: {fileID: 0}
    - target: {fileID: 4640550437719280, guid: f494d902a30466946ab12a16e64b58ef, type: 2}
      propertyPath: m_LocalRotation.y
      value: -0
      objectReference: {fileID: 0}
    - target: {fileID: 4640550437719280, guid: f494d902a30466946ab12a16e64b58ef, type: 2}
      propertyPath: m_LocalRotation.z
      value: -0
      objectReference: {fileID: 0}
    - target: {fileID: 4640550437719280, guid: f494d902a30466946ab12a16e64b58ef, type: 2}
      propertyPath: m_LocalRotation.w
      value: 1
      objectReference: {fileID: 0}
    - target: {fileID: 4640550437719280, guid: f494d902a30466946ab12a16e64b58ef, type: 2}
      propertyPath: m_RootOrder
      value: 11
      objectReference: {fileID: 0}
    m_RemovedComponents: []
  m_ParentPrefab: {fileID: 100100000, guid: f494d902a30466946ab12a16e64b58ef, type: 2}
  m_RootGameObject: {fileID: 1055213832}
  m_IsPrefabParent: 0
--- !u!4 &1776894976
Transform:
  m_ObjectHideFlags: 0
  m_PrefabParentObject: {fileID: 4640550437719280, guid: f494d902a30466946ab12a16e64b58ef,
    type: 2}
  m_PrefabInternal: {fileID: 1776894975}
  m_GameObject: {fileID: 1055213832}
  m_LocalRotation: {x: -0, y: -0, z: -0, w: 1}
  m_LocalPosition: {x: 1.3427348, y: 1.533117, z: 0.03197527}
  m_LocalScale: {x: 1, y: 1, z: 1}
  m_Children: []
  m_Father: {fileID: 962893137}
  m_RootOrder: 11
  m_LocalEulerAnglesHint: {x: 0, y: 0, z: 0}
--- !u!1 &1804865517
GameObject:
  m_ObjectHideFlags: 0
  m_PrefabParentObject: {fileID: 1520260422201902, guid: 2088e620460408a4cb440efd7a6ee756,
    type: 2}
  m_PrefabInternal: {fileID: 196171987}
  serializedVersion: 5
  m_Component:
  - component: {fileID: 196171988}
  - component: {fileID: 1804865519}
  - component: {fileID: 1804865518}
  m_Layer: 0
  m_Name: Part_15
  m_TagString: Untagged
  m_Icon: {fileID: 0}
  m_NavMeshLayer: 0
  m_StaticEditorFlags: 0
  m_IsActive: 1
--- !u!23 &1804865518
MeshRenderer:
  m_ObjectHideFlags: 0
  m_PrefabParentObject: {fileID: 23639430629276548, guid: 2088e620460408a4cb440efd7a6ee756,
    type: 2}
  m_PrefabInternal: {fileID: 196171987}
  m_GameObject: {fileID: 1804865517}
  m_Enabled: 1
  m_CastShadows: 1
  m_ReceiveShadows: 1
  m_MotionVectors: 1
  m_LightProbeUsage: 1
  m_ReflectionProbeUsage: 1
  m_Materials:
  - {fileID: 2100000, guid: c0e2b2c96376d3946abe974753956658, type: 2}
  m_StaticBatchInfo:
    firstSubMesh: 0
    subMeshCount: 0
  m_StaticBatchRoot: {fileID: 0}
  m_ProbeAnchor: {fileID: 0}
  m_LightProbeVolumeOverride: {fileID: 0}
  m_ScaleInLightmap: 1
  m_PreserveUVs: 0
  m_IgnoreNormalsForChartDetection: 0
  m_ImportantGI: 0
  m_SelectedEditorRenderState: 3
  m_MinimumChartSize: 4
  m_AutoUVMaxDistance: 0.5
  m_AutoUVMaxAngle: 89
  m_LightmapParameters: {fileID: 0}
  m_SortingLayerID: 0
  m_SortingLayer: 0
  m_SortingOrder: 0
--- !u!33 &1804865519
MeshFilter:
  m_ObjectHideFlags: 0
  m_PrefabParentObject: {fileID: 33029925742187548, guid: 2088e620460408a4cb440efd7a6ee756,
    type: 2}
  m_PrefabInternal: {fileID: 196171987}
  m_GameObject: {fileID: 1804865517}
  m_Mesh: {fileID: 4300030, guid: eb1625d1c61c79e4da85a39a1f877bc6, type: 3}
--- !u!1 &1815639249
GameObject:
  m_ObjectHideFlags: 0
  m_PrefabParentObject: {fileID: 1829567965659044, guid: 08062bd9f15ec0d48b40e6ca14ba5e2c,
    type: 2}
  m_PrefabInternal: {fileID: 2083765907}
  serializedVersion: 5
  m_Component:
  - component: {fileID: 2083765908}
  - component: {fileID: 1815639251}
  - component: {fileID: 1815639250}
  m_Layer: 0
  m_Name: Part_14
  m_TagString: Untagged
  m_Icon: {fileID: 0}
  m_NavMeshLayer: 0
  m_StaticEditorFlags: 0
  m_IsActive: 1
--- !u!23 &1815639250
MeshRenderer:
  m_ObjectHideFlags: 0
  m_PrefabParentObject: {fileID: 23856051685318638, guid: 08062bd9f15ec0d48b40e6ca14ba5e2c,
    type: 2}
  m_PrefabInternal: {fileID: 2083765907}
  m_GameObject: {fileID: 1815639249}
  m_Enabled: 1
  m_CastShadows: 1
  m_ReceiveShadows: 1
  m_MotionVectors: 1
  m_LightProbeUsage: 1
  m_ReflectionProbeUsage: 1
  m_Materials:
  - {fileID: 2100000, guid: c0e2b2c96376d3946abe974753956658, type: 2}
  m_StaticBatchInfo:
    firstSubMesh: 0
    subMeshCount: 0
  m_StaticBatchRoot: {fileID: 0}
  m_ProbeAnchor: {fileID: 0}
  m_LightProbeVolumeOverride: {fileID: 0}
  m_ScaleInLightmap: 1
  m_PreserveUVs: 0
  m_IgnoreNormalsForChartDetection: 0
  m_ImportantGI: 0
  m_SelectedEditorRenderState: 3
  m_MinimumChartSize: 4
  m_AutoUVMaxDistance: 0.5
  m_AutoUVMaxAngle: 89
  m_LightmapParameters: {fileID: 0}
  m_SortingLayerID: 0
  m_SortingLayer: 0
  m_SortingOrder: 0
--- !u!33 &1815639251
MeshFilter:
  m_ObjectHideFlags: 0
  m_PrefabParentObject: {fileID: 33617918884557452, guid: 08062bd9f15ec0d48b40e6ca14ba5e2c,
    type: 2}
  m_PrefabInternal: {fileID: 2083765907}
  m_GameObject: {fileID: 1815639249}
  m_Mesh: {fileID: 4300028, guid: eb1625d1c61c79e4da85a39a1f877bc6, type: 3}
--- !u!1001 &1852980463
Prefab:
  m_ObjectHideFlags: 0
  serializedVersion: 2
  m_Modification:
    m_TransformParent: {fileID: 962893137}
    m_Modifications:
    - target: {fileID: 4535931872732936, guid: 1d68bef23ee59cd4eab3a03bd74d4f83, type: 2}
      propertyPath: m_LocalPosition.x
      value: 1.3427348
      objectReference: {fileID: 0}
    - target: {fileID: 4535931872732936, guid: 1d68bef23ee59cd4eab3a03bd74d4f83, type: 2}
      propertyPath: m_LocalPosition.y
      value: 1.524619
      objectReference: {fileID: 0}
    - target: {fileID: 4535931872732936, guid: 1d68bef23ee59cd4eab3a03bd74d4f83, type: 2}
      propertyPath: m_LocalPosition.z
      value: -1.3970447
      objectReference: {fileID: 0}
    - target: {fileID: 4535931872732936, guid: 1d68bef23ee59cd4eab3a03bd74d4f83, type: 2}
      propertyPath: m_LocalRotation.x
      value: -0
      objectReference: {fileID: 0}
    - target: {fileID: 4535931872732936, guid: 1d68bef23ee59cd4eab3a03bd74d4f83, type: 2}
      propertyPath: m_LocalRotation.y
      value: -0
      objectReference: {fileID: 0}
    - target: {fileID: 4535931872732936, guid: 1d68bef23ee59cd4eab3a03bd74d4f83, type: 2}
      propertyPath: m_LocalRotation.z
      value: -0
      objectReference: {fileID: 0}
    - target: {fileID: 4535931872732936, guid: 1d68bef23ee59cd4eab3a03bd74d4f83, type: 2}
      propertyPath: m_LocalRotation.w
      value: 1
      objectReference: {fileID: 0}
    - target: {fileID: 4535931872732936, guid: 1d68bef23ee59cd4eab3a03bd74d4f83, type: 2}
      propertyPath: m_RootOrder
      value: 1
      objectReference: {fileID: 0}
    m_RemovedComponents: []
  m_ParentPrefab: {fileID: 100100000, guid: 1d68bef23ee59cd4eab3a03bd74d4f83, type: 2}
  m_RootGameObject: {fileID: 704323036}
  m_IsPrefabParent: 0
--- !u!4 &1852980464
Transform:
  m_ObjectHideFlags: 0
  m_PrefabParentObject: {fileID: 4535931872732936, guid: 1d68bef23ee59cd4eab3a03bd74d4f83,
    type: 2}
  m_PrefabInternal: {fileID: 1852980463}
  m_GameObject: {fileID: 704323036}
  m_LocalRotation: {x: -0, y: -0, z: -0, w: 1}
  m_LocalPosition: {x: 1.3427348, y: 1.524619, z: -1.3970447}
  m_LocalScale: {x: 1, y: 1, z: 1}
  m_Children: []
  m_Father: {fileID: 962893137}
  m_RootOrder: 1
  m_LocalEulerAnglesHint: {x: 0, y: 0, z: 0}
--- !u!1001 &1873592789
Prefab:
  m_ObjectHideFlags: 0
  serializedVersion: 2
  m_Modification:
    m_TransformParent: {fileID: 962893137}
    m_Modifications:
    - target: {fileID: 4436230789213222, guid: 522c6f5ea8c2bdf4e913913c72ec03fb, type: 2}
      propertyPath: m_LocalPosition.x
      value: 1.3427346
      objectReference: {fileID: 0}
    - target: {fileID: 4436230789213222, guid: 522c6f5ea8c2bdf4e913913c72ec03fb, type: 2}
      propertyPath: m_LocalPosition.y
      value: 1.6586276
      objectReference: {fileID: 0}
    - target: {fileID: 4436230789213222, guid: 522c6f5ea8c2bdf4e913913c72ec03fb, type: 2}
      propertyPath: m_LocalPosition.z
      value: 2.7966597
      objectReference: {fileID: 0}
    - target: {fileID: 4436230789213222, guid: 522c6f5ea8c2bdf4e913913c72ec03fb, type: 2}
      propertyPath: m_LocalRotation.x
      value: -0
      objectReference: {fileID: 0}
    - target: {fileID: 4436230789213222, guid: 522c6f5ea8c2bdf4e913913c72ec03fb, type: 2}
      propertyPath: m_LocalRotation.y
      value: -0
      objectReference: {fileID: 0}
    - target: {fileID: 4436230789213222, guid: 522c6f5ea8c2bdf4e913913c72ec03fb, type: 2}
      propertyPath: m_LocalRotation.z
      value: -0
      objectReference: {fileID: 0}
    - target: {fileID: 4436230789213222, guid: 522c6f5ea8c2bdf4e913913c72ec03fb, type: 2}
      propertyPath: m_LocalRotation.w
      value: 1
      objectReference: {fileID: 0}
    - target: {fileID: 4436230789213222, guid: 522c6f5ea8c2bdf4e913913c72ec03fb, type: 2}
      propertyPath: m_RootOrder
      value: 7
      objectReference: {fileID: 0}
    m_RemovedComponents: []
  m_ParentPrefab: {fileID: 100100000, guid: 522c6f5ea8c2bdf4e913913c72ec03fb, type: 2}
  m_RootGameObject: {fileID: 1765158819}
  m_IsPrefabParent: 0
--- !u!4 &1873592790
Transform:
  m_ObjectHideFlags: 0
  m_PrefabParentObject: {fileID: 4436230789213222, guid: 522c6f5ea8c2bdf4e913913c72ec03fb,
    type: 2}
  m_PrefabInternal: {fileID: 1873592789}
  m_GameObject: {fileID: 1765158819}
  m_LocalRotation: {x: -0, y: -0, z: -0, w: 1}
  m_LocalPosition: {x: 1.3427346, y: 1.6586276, z: 2.7966597}
  m_LocalScale: {x: 1, y: 1, z: 1}
  m_Children: []
  m_Father: {fileID: 962893137}
  m_RootOrder: 7
  m_LocalEulerAnglesHint: {x: 0, y: 0, z: 0}
--- !u!1 &1967508266
GameObject:
  m_ObjectHideFlags: 0
  m_PrefabParentObject: {fileID: 1936069204965488, guid: 982125fb31d01d04facaa6b3a11c5a2b,
    type: 2}
  m_PrefabInternal: {fileID: 1755314687}
  serializedVersion: 5
  m_Component:
  - component: {fileID: 1755314688}
  - component: {fileID: 1967508268}
  - component: {fileID: 1967508267}
  m_Layer: 0
  m_Name: Part_12
  m_TagString: Untagged
  m_Icon: {fileID: 0}
  m_NavMeshLayer: 0
  m_StaticEditorFlags: 0
  m_IsActive: 1
--- !u!23 &1967508267
MeshRenderer:
  m_ObjectHideFlags: 0
  m_PrefabParentObject: {fileID: 23088697764603310, guid: 982125fb31d01d04facaa6b3a11c5a2b,
    type: 2}
  m_PrefabInternal: {fileID: 1755314687}
  m_GameObject: {fileID: 1967508266}
  m_Enabled: 1
  m_CastShadows: 1
  m_ReceiveShadows: 1
  m_MotionVectors: 1
  m_LightProbeUsage: 1
  m_ReflectionProbeUsage: 1
  m_Materials:
  - {fileID: 2100000, guid: c0e2b2c96376d3946abe974753956658, type: 2}
  m_StaticBatchInfo:
    firstSubMesh: 0
    subMeshCount: 0
  m_StaticBatchRoot: {fileID: 0}
  m_ProbeAnchor: {fileID: 0}
  m_LightProbeVolumeOverride: {fileID: 0}
  m_ScaleInLightmap: 1
  m_PreserveUVs: 0
  m_IgnoreNormalsForChartDetection: 0
  m_ImportantGI: 0
  m_SelectedEditorRenderState: 3
  m_MinimumChartSize: 4
  m_AutoUVMaxDistance: 0.5
  m_AutoUVMaxAngle: 89
  m_LightmapParameters: {fileID: 0}
  m_SortingLayerID: 0
  m_SortingLayer: 0
  m_SortingOrder: 0
--- !u!33 &1967508268
MeshFilter:
  m_ObjectHideFlags: 0
  m_PrefabParentObject: {fileID: 33274851320803958, guid: 982125fb31d01d04facaa6b3a11c5a2b,
    type: 2}
  m_PrefabInternal: {fileID: 1755314687}
  m_GameObject: {fileID: 1967508266}
  m_Mesh: {fileID: 4300024, guid: eb1625d1c61c79e4da85a39a1f877bc6, type: 3}
--- !u!1 &1968747133
GameObject:
  m_ObjectHideFlags: 0
  m_PrefabParentObject: {fileID: 1497142817986090, guid: bc51216b576c8994595ce6809ef9ea9b,
    type: 2}
  m_PrefabInternal: {fileID: 2013521946}
  serializedVersion: 5
  m_Component:
  - component: {fileID: 2013521947}
  - component: {fileID: 1968747135}
  - component: {fileID: 1968747134}
  m_Layer: 0
  m_Name: Part_16
  m_TagString: Untagged
  m_Icon: {fileID: 0}
  m_NavMeshLayer: 0
  m_StaticEditorFlags: 0
  m_IsActive: 1
--- !u!23 &1968747134
MeshRenderer:
  m_ObjectHideFlags: 0
  m_PrefabParentObject: {fileID: 23380167997343940, guid: bc51216b576c8994595ce6809ef9ea9b,
    type: 2}
  m_PrefabInternal: {fileID: 2013521946}
  m_GameObject: {fileID: 1968747133}
  m_Enabled: 1
  m_CastShadows: 1
  m_ReceiveShadows: 1
  m_MotionVectors: 1
  m_LightProbeUsage: 1
  m_ReflectionProbeUsage: 1
  m_Materials:
  - {fileID: 2100000, guid: c0e2b2c96376d3946abe974753956658, type: 2}
  m_StaticBatchInfo:
    firstSubMesh: 0
    subMeshCount: 0
  m_StaticBatchRoot: {fileID: 0}
  m_ProbeAnchor: {fileID: 0}
  m_LightProbeVolumeOverride: {fileID: 0}
  m_ScaleInLightmap: 1
  m_PreserveUVs: 0
  m_IgnoreNormalsForChartDetection: 0
  m_ImportantGI: 0
  m_SelectedEditorRenderState: 3
  m_MinimumChartSize: 4
  m_AutoUVMaxDistance: 0.5
  m_AutoUVMaxAngle: 89
  m_LightmapParameters: {fileID: 0}
  m_SortingLayerID: 0
  m_SortingLayer: 0
  m_SortingOrder: 0
--- !u!33 &1968747135
MeshFilter:
  m_ObjectHideFlags: 0
  m_PrefabParentObject: {fileID: 33529201870370906, guid: bc51216b576c8994595ce6809ef9ea9b,
    type: 2}
  m_PrefabInternal: {fileID: 2013521946}
  m_GameObject: {fileID: 1968747133}
  m_Mesh: {fileID: 4300034, guid: eb1625d1c61c79e4da85a39a1f877bc6, type: 3}
--- !u!1001 &2013521946
Prefab:
  m_ObjectHideFlags: 0
  serializedVersion: 2
  m_Modification:
    m_TransformParent: {fileID: 962893137}
    m_Modifications:
    - target: {fileID: 4035104021822148, guid: bc51216b576c8994595ce6809ef9ea9b, type: 2}
      propertyPath: m_LocalPosition.x
      value: 2.6393948
      objectReference: {fileID: 0}
    - target: {fileID: 4035104021822148, guid: bc51216b576c8994595ce6809ef9ea9b, type: 2}
      propertyPath: m_LocalPosition.y
      value: 1.5110617
      objectReference: {fileID: 0}
    - target: {fileID: 4035104021822148, guid: bc51216b576c8994595ce6809ef9ea9b, type: 2}
      propertyPath: m_LocalPosition.z
      value: -2.1607475
      objectReference: {fileID: 0}
    - target: {fileID: 4035104021822148, guid: bc51216b576c8994595ce6809ef9ea9b, type: 2}
      propertyPath: m_LocalRotation.x
      value: -0
      objectReference: {fileID: 0}
    - target: {fileID: 4035104021822148, guid: bc51216b576c8994595ce6809ef9ea9b, type: 2}
      propertyPath: m_LocalRotation.y
      value: -0
      objectReference: {fileID: 0}
    - target: {fileID: 4035104021822148, guid: bc51216b576c8994595ce6809ef9ea9b, type: 2}
      propertyPath: m_LocalRotation.z
      value: -0
      objectReference: {fileID: 0}
    - target: {fileID: 4035104021822148, guid: bc51216b576c8994595ce6809ef9ea9b, type: 2}
      propertyPath: m_LocalRotation.w
      value: 1
      objectReference: {fileID: 0}
    - target: {fileID: 4035104021822148, guid: bc51216b576c8994595ce6809ef9ea9b, type: 2}
      propertyPath: m_RootOrder
      value: 16
      objectReference: {fileID: 0}
    m_RemovedComponents: []
  m_ParentPrefab: {fileID: 100100000, guid: bc51216b576c8994595ce6809ef9ea9b, type: 2}
  m_RootGameObject: {fileID: 1968747133}
  m_IsPrefabParent: 0
--- !u!4 &2013521947
Transform:
  m_ObjectHideFlags: 0
  m_PrefabParentObject: {fileID: 4035104021822148, guid: bc51216b576c8994595ce6809ef9ea9b,
    type: 2}
  m_PrefabInternal: {fileID: 2013521946}
  m_GameObject: {fileID: 1968747133}
  m_LocalRotation: {x: -0, y: -0, z: -0, w: 1}
  m_LocalPosition: {x: 2.6393948, y: 1.5110617, z: -2.1607475}
  m_LocalScale: {x: 1, y: 1, z: 1}
  m_Children: []
  m_Father: {fileID: 962893137}
  m_RootOrder: 16
  m_LocalEulerAnglesHint: {x: 0, y: 0, z: 0}
--- !u!1001 &2083765907
Prefab:
  m_ObjectHideFlags: 0
  serializedVersion: 2
  m_Modification:
    m_TransformParent: {fileID: 962893137}
    m_Modifications:
    - target: {fileID: 4139149772824960, guid: 08062bd9f15ec0d48b40e6ca14ba5e2c, type: 2}
      propertyPath: m_LocalPosition.x
      value: 2.6394672
      objectReference: {fileID: 0}
    - target: {fileID: 4139149772824960, guid: 08062bd9f15ec0d48b40e6ca14ba5e2c, type: 2}
      propertyPath: m_LocalPosition.y
      value: 1.5186121
      objectReference: {fileID: 0}
    - target: {fileID: 4139149772824960, guid: 08062bd9f15ec0d48b40e6ca14ba5e2c, type: 2}
      propertyPath: m_LocalPosition.z
      value: -1.1343226
      objectReference: {fileID: 0}
    - target: {fileID: 4139149772824960, guid: 08062bd9f15ec0d48b40e6ca14ba5e2c, type: 2}
      propertyPath: m_LocalRotation.x
      value: -0
      objectReference: {fileID: 0}
    - target: {fileID: 4139149772824960, guid: 08062bd9f15ec0d48b40e6ca14ba5e2c, type: 2}
      propertyPath: m_LocalRotation.y
      value: -0
      objectReference: {fileID: 0}
    - target: {fileID: 4139149772824960, guid: 08062bd9f15ec0d48b40e6ca14ba5e2c, type: 2}
      propertyPath: m_LocalRotation.z
      value: -0
      objectReference: {fileID: 0}
    - target: {fileID: 4139149772824960, guid: 08062bd9f15ec0d48b40e6ca14ba5e2c, type: 2}
      propertyPath: m_LocalRotation.w
      value: 1
      objectReference: {fileID: 0}
    - target: {fileID: 4139149772824960, guid: 08062bd9f15ec0d48b40e6ca14ba5e2c, type: 2}
      propertyPath: m_RootOrder
      value: 14
      objectReference: {fileID: 0}
    m_RemovedComponents: []
  m_ParentPrefab: {fileID: 100100000, guid: 08062bd9f15ec0d48b40e6ca14ba5e2c, type: 2}
  m_RootGameObject: {fileID: 1815639249}
  m_IsPrefabParent: 0
--- !u!4 &2083765908
Transform:
  m_ObjectHideFlags: 0
  m_PrefabParentObject: {fileID: 4139149772824960, guid: 08062bd9f15ec0d48b40e6ca14ba5e2c,
    type: 2}
  m_PrefabInternal: {fileID: 2083765907}
  m_GameObject: {fileID: 1815639249}
  m_LocalRotation: {x: -0, y: -0, z: -0, w: 1}
  m_LocalPosition: {x: 2.6394672, y: 1.5186121, z: -1.1343226}
  m_LocalScale: {x: 1, y: 1, z: 1}
  m_Children: []
  m_Father: {fileID: 962893137}
  m_RootOrder: 14
  m_LocalEulerAnglesHint: {x: 0, y: 0, z: 0}
--- !u!1 &2106561555
GameObject:
  m_ObjectHideFlags: 0
  m_PrefabParentObject: {fileID: 1687036741987796, guid: 125da5139de77c64e9b43d7020e7ff65,
    type: 2}
  m_PrefabInternal: {fileID: 1283036446}
  serializedVersion: 5
  m_Component:
  - component: {fileID: 1283036447}
  - component: {fileID: 2106561557}
  - component: {fileID: 2106561556}
  m_Layer: 0
  m_Name: Part_08
  m_TagString: Untagged
  m_Icon: {fileID: 0}
  m_NavMeshLayer: 0
  m_StaticEditorFlags: 0
  m_IsActive: 1
--- !u!23 &2106561556
MeshRenderer:
  m_ObjectHideFlags: 0
  m_PrefabParentObject: {fileID: 23312509282066546, guid: 125da5139de77c64e9b43d7020e7ff65,
    type: 2}
  m_PrefabInternal: {fileID: 1283036446}
  m_GameObject: {fileID: 2106561555}
  m_Enabled: 1
  m_CastShadows: 1
  m_ReceiveShadows: 1
  m_MotionVectors: 1
  m_LightProbeUsage: 1
  m_ReflectionProbeUsage: 1
  m_Materials:
  - {fileID: 2100000, guid: c0e2b2c96376d3946abe974753956658, type: 2}
  m_StaticBatchInfo:
    firstSubMesh: 0
    subMeshCount: 0
  m_StaticBatchRoot: {fileID: 0}
  m_ProbeAnchor: {fileID: 0}
  m_LightProbeVolumeOverride: {fileID: 0}
  m_ScaleInLightmap: 1
  m_PreserveUVs: 0
  m_IgnoreNormalsForChartDetection: 0
  m_ImportantGI: 0
  m_SelectedEditorRenderState: 3
  m_MinimumChartSize: 4
  m_AutoUVMaxDistance: 0.5
  m_AutoUVMaxAngle: 89
  m_LightmapParameters: {fileID: 0}
  m_SortingLayerID: 0
  m_SortingLayer: 0
  m_SortingOrder: 0
--- !u!33 &2106561557
MeshFilter:
  m_ObjectHideFlags: 0
  m_PrefabParentObject: {fileID: 33288331248810010, guid: 125da5139de77c64e9b43d7020e7ff65,
    type: 2}
  m_PrefabInternal: {fileID: 1283036446}
  m_GameObject: {fileID: 2106561555}
  m_Mesh: {fileID: 4300016, guid: eb1625d1c61c79e4da85a39a1f877bc6, type: 3}
--- !u!1 &2145901151
GameObject:
  m_ObjectHideFlags: 0
  m_PrefabParentObject: {fileID: 0}
  m_PrefabInternal: {fileID: 0}
  serializedVersion: 5
  m_Component:
  - component: {fileID: 2145901156}
  - component: {fileID: 2145901155}
  - component: {fileID: 2145901154}
  - component: {fileID: 2145901153}
  - component: {fileID: 2145901152}
  m_Layer: 0
  m_Name: Main Camera
  m_TagString: MainCamera
  m_Icon: {fileID: 0}
  m_NavMeshLayer: 0
  m_StaticEditorFlags: 0
  m_IsActive: 1
--- !u!81 &2145901152
AudioListener:
  m_ObjectHideFlags: 0
  m_PrefabParentObject: {fileID: 0}
  m_PrefabInternal: {fileID: 0}
  m_GameObject: {fileID: 2145901151}
  m_Enabled: 1
--- !u!124 &2145901153
Behaviour:
  m_ObjectHideFlags: 0
  m_PrefabParentObject: {fileID: 0}
  m_PrefabInternal: {fileID: 0}
  m_GameObject: {fileID: 2145901151}
  m_Enabled: 1
--- !u!92 &2145901154
Behaviour:
  m_ObjectHideFlags: 0
  m_PrefabParentObject: {fileID: 0}
  m_PrefabInternal: {fileID: 0}
  m_GameObject: {fileID: 2145901151}
  m_Enabled: 1
--- !u!20 &2145901155
Camera:
  m_ObjectHideFlags: 0
  m_PrefabParentObject: {fileID: 0}
  m_PrefabInternal: {fileID: 0}
  m_GameObject: {fileID: 2145901151}
  m_Enabled: 1
  serializedVersion: 2
  m_ClearFlags: 1
  m_BackGroundColor: {r: 0.19215687, g: 0.3019608, b: 0.4745098, a: 0}
  m_NormalizedViewPortRect:
    serializedVersion: 2
    x: 0
    y: 0
    width: 1
    height: 1
  near clip plane: 0.3
  far clip plane: 1000
  field of view: 60
  orthographic: 0
  orthographic size: 5
  m_Depth: -1
  m_CullingMask:
    serializedVersion: 2
    m_Bits: 4294967295
  m_RenderingPath: -1
  m_TargetTexture: {fileID: 0}
  m_TargetDisplay: 0
  m_TargetEye: 3
  m_HDR: 0
  m_AllowMSAA: 1
  m_ForceIntoRT: 0
  m_OcclusionCulling: 1
  m_StereoConvergence: 10
  m_StereoSeparation: 0.022
  m_StereoMirrorMode: 0
--- !u!4 &2145901156
Transform:
  m_ObjectHideFlags: 0
  m_PrefabParentObject: {fileID: 0}
  m_PrefabInternal: {fileID: 0}
  m_GameObject: {fileID: 2145901151}
  m_LocalRotation: {x: 0, y: 0, z: 0, w: 1}
  m_LocalPosition: {x: 0, y: 1, z: -10}
  m_LocalScale: {x: 1, y: 1, z: 1}
  m_Children: []
  m_Father: {fileID: 0}
  m_RootOrder: 0
  m_LocalEulerAnglesHint: {x: 0, y: 0, z: 0}
